<?xml version="1.0" standalone="no"?>
<!DOCTYPE svg PUBLIC "-//W3C//DTD SVG 1.1//EN" "http://www.w3.org/Graphics/SVG/1.1/DTD/svg11.dtd" >
<svg xmlns="http://www.w3.org/2000/svg">
<metadata>
This is a custom SVG webfont generated by Font Squirrel.
Copyright   : Font data copyright Google 2011
Designer    : Google
Foundry URL : Googlecom
</metadata>
<defs>
<font id="RobotoMediumItalic" horiz-adv-x="1160" >
<font-face units-per-em="2048" ascent="1536" descent="-512" />
<missing-glyph horiz-adv-x="510" />
<glyph unicode=" "  horiz-adv-x="510" />
<glyph unicode="&#x09;" horiz-adv-x="510" />
<glyph unicode="&#xa0;" horiz-adv-x="510" />
<glyph unicode="!" horiz-adv-x="549" d="M74 0l35 234h243l-35 -234h-243zM148 491l144 965h243l-144 -965h-243z" />
<glyph unicode="&#x22;" horiz-adv-x="781" d="M188 932l34 237l40 287h214l-39 -275l-137 -249h-112zM513 932l35 245l39 279h214l-39 -275l-137 -249h-112z" />
<glyph unicode="#" horiz-adv-x="1250" d="M42 410l23 158h261l105 313h-243l24 159h273l140 416h167l-140 -416h224l140 416h168l-140 -416h208l-24 -159h-238l-105 -313h221l-23 -158h-251l-138 -410h-167l137 410h-224l-138 -410h-167l138 410h-231zM493 568h224l105 313h-224z" />
<glyph unicode="$" horiz-adv-x="1205" d="M102 436h242q-20 -145 41 -201t170 -56t180 54.5t84 146.5q12 89 -34.5 142.5t-176.5 100.5q-203 68 -294.5 170.5t-66.5 279.5q24 174 139.5 277.5t294.5 122.5l31 218h159l-31 -220q165 -25 248 -141.5t58 -304.5h-242q16 121 -30 186t-148 65t-163 -55t-73 -146 q-13 -89 32 -139.5t182 -103.5q203 -68 293 -170.5t65 -279.5q-25 -181 -143.5 -281.5t-307.5 -117.5l-27 -194h-159l27 194q-173 19 -276.5 129.5t-73.5 323.5z" />
<glyph unicode="%" horiz-adv-x="1504" d="M185 1099l11 77q19 133 114.5 217t239.5 84q138 0 210 -87t53 -214l-11 -77q-21 -133 -115 -216t-237 -83q-138 0 -211.5 86.5t-53.5 212.5zM282 181l882 1138l114 -72l-882 -1138zM354 1099q-11 -66 19 -109.5t99 -43.5q63 0 106.5 44.5t53.5 108.5l11 77q10 67 -19 111 t-96 44q-64 0 -108.5 -45.5t-54.5 -109.5zM762 279l12 78q19 132 114 216t239 84q138 0 210 -87t54 -213l-12 -78q-21 -133 -114.5 -216.5t-237.5 -83.5q-138 0 -211.5 87t-53.5 213zM931 279q-11 -66 20.5 -110t97.5 -44q67 0 109 44t52 110l12 78q9 67 -20.5 110.5 t-96.5 43.5q-64 0 -108.5 -45.5t-53.5 -108.5z" />
<glyph unicode="&#x26;" horiz-adv-x="1309" d="M41 393q18 126 97 211t231 179q-58 94 -82.5 170t-11.5 156q27 183 142.5 275.5t294.5 92.5q152 0 240 -96.5t69 -229.5q-17 -105 -74.5 -176.5t-163.5 -143.5l-115 -75l247 -357q50 63 83.5 137.5t46.5 157.5h204q-22 -144 -76 -258.5t-143 -203.5l162 -232h-281l-67 95 q-90 -57 -188 -86.5t-202 -29.5q-209 0 -325 116.5t-88 297.5zM285 401q-16 -103 37.5 -165.5t167.5 -62.5q60 0 123.5 18.5t125.5 54.5l-267 382l-29 -19q-84 -56 -117.5 -108.5t-40.5 -99.5zM504 1112q-8 -49 8.5 -98.5t54.5 -110.5l120 73q63 37 88 77t33 90 q8 56 -26.5 97.5t-103.5 41.5q-67 0 -115.5 -50t-58.5 -120z" />
<glyph unicode="'" horiz-adv-x="444" d="M163 924l38 267l37 265h229l-35 -249l-142 -283h-127z" />
<glyph unicode="(" horiz-adv-x="695" d="M134 576l2 16q57 411 248.5 678t390.5 354l6 -1l26 -134q-148 -102 -275.5 -327t-174.5 -568l-3 -20q-50 -358 13 -574t186 -328l-64 -128h-6q-170 86 -287.5 362t-61.5 670z" />
<glyph unicode=")" horiz-adv-x="700" d="M-104 -328q147 102 274.5 330t176.5 572l3 20q49 354 -16.5 574t-182.5 327l65 129h6q170 -84 290 -364t67 -668l-2 -16q-58 -406 -253 -675t-394 -357l-6 1z" />
<glyph unicode="*" horiz-adv-x="872" d="M103 751l75 164l226 -83l32 249h169l-40 -257l243 83l26 -167l-249 -73l116 -200l-153 -102l-113 211l-170 -203l-124 99l183 206z" />
<glyph unicode="+" horiz-adv-x="1141" d="M75 579l33 222h382l61 405h236l-61 -405h380l-33 -222h-380l-65 -433h-236l65 433h-382z" />
<glyph unicode="," horiz-adv-x="462" d="M-68 -281l118 321l30 198h239l-31 -207l-202 -312h-154z" />
<glyph unicode="-" horiz-adv-x="910" d="M156 521l30 196h590l-30 -196h-590z" />
<glyph unicode="." horiz-adv-x="572" d="M73 0l35 233h242l-35 -233h-242z" />
<glyph unicode="/" horiz-adv-x="839" d="M-97 -125l810 1581h223l-810 -1581h-223z" />
<glyph unicode="0" horiz-adv-x="1164" d="M102 521l62 413q38 260 188.5 401.5t370.5 141.5q209 0 321 -147.5t75 -395.5l-62 -413q-39 -262 -188.5 -402t-368.5 -140q-209 0 -322.5 146.5t-75.5 395.5zM340 486q-24 -153 26 -233t163 -80q107 0 182.5 83t97.5 230l73 485q22 152 -27 231.5t-162 79.5 q-108 0 -183.5 -83.5t-96.5 -227.5z" />
<glyph unicode="1" horiz-adv-x="1164" d="M304 1232l29 193l560 52l-222 -1477h-243l185 1232h-309z" />
<glyph unicode="2" horiz-adv-x="1164" d="M59 0l23 167l529 526q129 131 184 216t66 163q13 96 -30.5 153t-141.5 57q-108 0 -181 -74t-87 -183h-234l-2 6q22 194 167 320t365 126q201 0 306.5 -113t80.5 -293q-19 -128 -96 -230.5t-258 -289.5l-356 -351l2 -6h629l-27 -194h-939z" />
<glyph unicode="3" horiz-adv-x="1164" d="M85 384l2 6h235q-15 -95 42.5 -156t165.5 -61q106 0 182.5 66.5t92.5 167.5q19 129 -31.5 187.5t-175.5 58.5h-162l7 50l13 83l1 7l8 51h162q114 0 176.5 60t78.5 164q14 98 -32.5 156t-153.5 58q-94 0 -170 -59t-88 -146h-233l-1 6q20 173 168.5 283.5t353.5 110.5 q206 0 316.5 -105.5t81.5 -303.5q-16 -105 -82.5 -187.5t-171.5 -128.5q103 -45 149.5 -133t28.5 -211q-32 -209 -181.5 -319t-365.5 -110q-186 0 -317.5 109.5t-98.5 295.5z" />
<glyph unicode="4" horiz-adv-x="1164" d="M39 323l17 149l755 984h249l-140 -937h184l-30 -196h-184l-48 -323h-242l48 323h-609zM304 524l3 -5h371l89 592l-6 2l-31 -55z" />
<glyph unicode="5" horiz-adv-x="1164" d="M112 378l3 5l230 7q-16 -106 36.5 -161.5t152.5 -55.5q110 0 182.5 78t92.5 212q20 135 -28.5 212.5t-162.5 77.5q-96 0 -152 -33t-86 -93l-205 17l205 812h768l-31 -210h-566l-100 -371q49 31 111 52t134 22q203 2 297 -126.5t60 -357.5q-34 -223 -172 -354.5 t-376 -131.5q-185 0 -305.5 104.5t-87.5 294.5z" />
<glyph unicode="6" horiz-adv-x="1164" d="M121 558l47 317q42 278 218.5 440t409.5 162q82 0 160.5 -16.5t136.5 -43.5l-76 -188q-57 24 -114 37.5t-136 13.5q-128 0 -228.5 -108t-125.5 -282l-11 -71q68 57 154 88.5t184 31.5q180 0 271 -130.5t61 -336.5q-35 -230 -182 -361.5t-362 -131.5q-207 0 -327.5 156 t-79.5 423zM361 545q-28 -181 28 -276.5t168 -95.5q103 0 178 85t95 214q20 133 -31.5 205.5t-165.5 72.5q-84 0 -151 -32.5t-109 -88.5z" />
<glyph unicode="7" horiz-adv-x="1164" d="M194 1261l29 195h993l-29 -195q-309 -310 -437.5 -549t-173.5 -541l-26 -171h-243l26 171q49 328 200 574.5t418 515.5h-757z" />
<glyph unicode="8" horiz-adv-x="1164" d="M74 404q18 126 105.5 217.5t221.5 136.5q-99 46 -148.5 130t-32.5 192q30 200 169.5 298.5t346.5 98.5q186 0 296 -103.5t82 -293.5q-18 -115 -89.5 -199.5t-178.5 -127.5q111 -48 169.5 -139.5t41.5 -209.5q-32 -211 -181.5 -318t-362.5 -107q-214 0 -342 112t-97 313z M318 413q-17 -113 45.5 -176.5t178.5 -63.5q98 0 177.5 66t96.5 174q16 111 -42 177.5t-161 66.5q-108 0 -193.5 -69t-101.5 -175zM462 1071q-16 -102 35 -160.5t147 -58.5q81 0 146 61t80 158q14 98 -32 154.5t-132 56.5q-92 0 -161 -57t-83 -154z" />
<glyph unicode="9" horiz-adv-x="1164" d="M133 42l67 185q61 -29 121 -41.5t140 -12.5q121 0 215.5 89.5t118.5 249.5l15 99q-58 -65 -132 -97t-155 -32q-199 0 -301 132.5t-67 359.5q34 228 185.5 365.5t352.5 137.5q211 0 328.5 -144t79.5 -399l-62 -413q-40 -263 -206.5 -402.5t-400.5 -139.5q-74 0 -154 16 t-145 47zM397 974q-22 -142 23.5 -222.5t154.5 -80.5q84 0 152.5 37.5t111.5 97.5l25 170q23 153 -29.5 229.5t-167.5 76.5q-94 0 -172 -88t-98 -220z" />
<glyph unicode=":" horiz-adv-x="549" d="M73 0l35 233h242l-35 -233h-242zM204 876l35 233h242l-35 -233h-242z" />
<glyph unicode=";" horiz-adv-x="544" d="M205 876l35 233h242l-35 -233h-242zM-17 -281l118 321l30 198h239l-31 -207l-202 -312h-154z" />
<glyph unicode="&#x3c;" horiz-adv-x="1041" d="M52 458l9 61l11 71l9 61l892 372l-36 -242l-611 -222l-20 -3v-6l18 -3l545 -218l-36 -243z" />
<glyph unicode="=" horiz-adv-x="1166" d="M120 366l30 201h862l-30 -201h-862zM184 790l30 202h862l-30 -202h-862z" />
<glyph unicode="&#x3e;" horiz-adv-x="1066" d="M59 72l36 239l639 226l19 3v6l-18 3l-571 221l35 239l809 -372l-20 -132l-9 -61z" />
<glyph unicode="?" horiz-adv-x="996" d="M132 1100q24 178 161.5 277.5t331.5 99.5q202 0 307 -108.5t77 -295.5q-20 -132 -107.5 -237t-216.5 -197q-64 -49 -85.5 -94.5t-34.5 -132.5h-243q23 143 64 204.5t165 154.5q90 77 146 146t69 153q14 100 -30 152t-142 52q-81 0 -147 -45.5t-79 -134.5h-234zM259 0 l35 233h248l-35 -233h-248z" />
<glyph unicode="@" horiz-adv-x="1825" d="M83 478q82 424 354.5 685t652.5 261q368 0 542 -248.5t95 -668.5q-41 -215 -179.5 -371.5t-367.5 -156.5q-71 0 -120 42.5t-63 119.5q-59 -81 -134.5 -120.5t-167.5 -39.5q-127 0 -183.5 120.5t-9.5 314.5q63 256 202.5 411t305.5 155q106 0 173 -27t136 -79l-4 -4h6 l-138 -579q-23 -101 -3 -139t63 -38q114 0 205 112t124 279q72 367 -53.5 572t-453.5 205q-294 0 -517.5 -223.5t-291.5 -582.5q-73 -365 61 -575t444 -210q83 0 178.5 20.5t163.5 52.5l18 -130q-73 -42 -180 -65.5t-206 -23.5q-372 0 -552.5 252t-99.5 679zM693 214 q20 -69 89 -69q58 0 111.5 24.5t103.5 88.5q1 10 2.5 18t4.5 17l123 515q-23 9 -48 14.5t-53 5.5q-114 0 -193.5 -104t-129.5 -308q-30 -133 -10 -202z" />
<glyph unicode="A" horiz-adv-x="1300" d="M-48 0l726 1456h231l284 -1456h-251l-60 340h-516l-163 -340h-251zM464 543h382l-100 572l-6 1z" />
<glyph unicode="B" horiz-adv-x="1304" d="M73 0l218 1456h477q232 0 358 -100q102 -82 101 -227q0 -33 -5 -70q-15 -100 -80 -175.5t-167 -114.5q135 -24 195 -122q46 -74 46 -168q0 -30 -5 -61q-33 -213 -180 -315.5t-387 -102.5h-571zM345 194h328q121 0 200 58t96 166q4 25 4 48q0 80 -45 129q-57 63 -179 67 h-12h-322zM442 843h260q109 0 184.5 54t90.5 151q3 24 3 44q0 78 -47 118q-60 50 -194 51h-234z" />
<glyph unicode="C" horiz-adv-x="1300" d="M117 589l42 277q41 277 221 444t434 167q248 -1 380 -133q103 -103 103 -261q0 -46 -9 -96l-3 -6h-235q6 39 6 72q0 98 -50 154q-67 75 -222 75q-142 0 -249.5 -119t-133.5 -295l-42 -279q-8 -53 -8 -101q1 -120 51 -201q70 -114 223 -114q143 0 235 79t114 224h233l2 -6 q-30 -228 -195 -359.5t-418 -131.5q-244 0 -382 173q-107 134 -106 323q0 55 9 114z" />
<glyph unicode="D" horiz-adv-x="1372" d="M73 0l218 1456h481q266 0 419 -174q121 -138 121 -337q0 -52 -8 -107l-33 -221q-43 -283 -239.5 -450t-477.5 -167h-481zM345 194h238q168 0 292 120t153 303l33 223q7 48 7 90q0 129 -64 216q-84 115 -261 115h-238z" />
<glyph unicode="E" horiz-adv-x="1134" d="M73 0l218 1456h908l-29 -195h-666l-61 -411h571l-30 -195h-570l-69 -461h672l-29 -194h-915z" />
<glyph unicode="F" horiz-adv-x="1134" d="M73 0l218 1456h932l-29 -195h-690l-66 -445h587l-29 -195h-587l-93 -621h-243z" />
<glyph unicode="G" horiz-adv-x="1376" d="M116 576l46 304q41 274 225 435.5t440 161.5q245 0 372 -129q99 -101 99 -247q0 -41 -8 -86l-2 -6h-232q4 29 4 55q0 89 -50 145q-64 73 -209 73t-257.5 -114t-138.5 -286l-46 -306q-7 -46 -7 -88q0 -123 60 -205q79 -110 235 -110q111 0 187 27t115 64l45 301h-305 l27 182h548l-82 -550q-73 -85 -214.5 -151.5t-349.5 -66.5q-249 0 -396 168q-115 132 -115 321q0 52 9 108z" />
<glyph unicode="H" horiz-adv-x="1443" d="M73 0l218 1456h243l-96 -640h651l96 640h243l-218 -1456h-243l93 621h-651l-93 -621h-243z" />
<glyph unicode="I" horiz-adv-x="589" d="M93 0l218 1456h243l-218 -1456h-243z" />
<glyph unicode="J" horiz-adv-x="1130" d="M40 411l2 5h236q-5 -35 -5 -65q0 -79 36 -121q50 -57 158 -57q91 0 164 72.5t92 191.5l152 1019h242l-152 -1019q-33 -218 -177.5 -338t-349.5 -120q-207 0 -320 111q-87 85 -87 226q0 45 9 95z" />
<glyph unicode="K" horiz-adv-x="1240" d="M62 0l218 1456h243l-92 -612h115l480 612h306l2 -5l-611 -726l418 -725h-278l-352 628h-112l-94 -628h-243z" />
<glyph unicode="L" horiz-adv-x="1131" d="M73 0l218 1456h243l-189 -1262h682l-29 -194h-925z" />
<glyph unicode="M" horiz-adv-x="1781" d="M73 0l218 1456h319l250 -1120h6l589 1120h310l-218 -1456h-243l156 1045l-5 1l-558 -1046h-167l-248 1066h-6l-160 -1066h-243z" />
<glyph unicode="N" horiz-adv-x="1443" d="M73 0l218 1456h243l488 -1049l6 1l157 1048h243l-218 -1456h-243l-489 1049l-6 -1l-156 -1048h-243z" />
<glyph unicode="O" horiz-adv-x="1402" d="M115 597l39 262q41 276 229 447t453 171q256 0 402 -178q116 -141 116 -334q0 -51 -8 -106l-39 -262q-43 -278 -234 -448t-462 -170q-251 0 -393 177q-111 138 -112 329q0 54 9 112zM358 597q-8 -53 -8 -101q0 -122 54 -204q75 -114 237 -114q161 0 278 118.5t145 300.5 l39 264q7 50 7 94q0 125 -58 209q-78 114 -246 113q-155 0 -268.5 -118t-140.5 -298z" />
<glyph unicode="P" horiz-adv-x="1304" d="M73 0l218 1456h558q233 0 355 -126q98 -101 98 -250q0 -36 -6 -76q-32 -212 -185 -332t-397 -120h-316l-82 -552h-243zM428 747h315q129 0 210.5 73t98.5 182q4 27 4 51q0 81 -44 136q-56 72 -192 72h-315z" />
<glyph unicode="Q" horiz-adv-x="1434" d="M115 597l39 262q41 276 229 447t453 171q256 0 402 -178q116 -141 116 -334q0 -51 -8 -106l-39 -262q-18 -116 -63.5 -215.5t-114.5 -176.5l180 -211l-184 -145l-182 210q-74 -40 -158 -60t-174 -20q-251 0 -393 177q-112 138 -112 329q0 54 9 112zM358 597 q-8 -53 -8 -101q0 -122 54 -204q75 -114 237 -114q161 0 278 118.5t145 300.5l39 264q7 50 7 94q0 125 -58 209q-78 113 -246 113q-155 0 -268.5 -118t-140.5 -298z" />
<glyph unicode="R" horiz-adv-x="1303" d="M73 0l218 1456h501q234 0 355 -112q97 -89 97 -236q0 -36 -6 -76q-18 -117 -88 -197.5t-191 -129.5q115 -41 157 -129q30 -62 29 -142q0 -34 -5 -72l-18 -121q-6 -38 -6 -75q0 -26 3 -50q7 -60 39 -93l-3 -23h-250q-34 32 -35 100v13q0 62 9 130l18 117q4 28 4 53 q-1 79 -41 127q-54 64 -166 64h-288l-90 -604h-243zM435 799h246q140 0 218.5 57t95.5 170q4 25 4 48q0 78 -44 126q-56 60 -192 61h-258z" />
<glyph unicode="S" horiz-adv-x="1251" d="M103 425l2 6h233q-4 -25 -4 -48q0 -103 78 -151q96 -58 238 -59q102 0 180 48.5t90 123.5q3 20 3 38q-1 77 -51 125q-62 60 -237 117q-239 76 -351 185q-89 87 -89 224q0 36 6 75q26 173 172 270.5t357 97.5q240 0 374 -119q106 -94 106 -243q0 -40 -8 -84l-2 -6h-234 q3 20 3 39q0 87 -60 146q-73 72 -209 72q-100 0 -172.5 -49t-82.5 -122q-4 -23 -4 -44q0 -73 47 -115q60 -54 255 -121q235 -76 341 -184q84 -85 84 -223q0 -36 -6 -77q-27 -181 -174 -274.5t-367 -93.5q-236 1 -397 109q-129 87 -129 251q0 40 8 86z" />
<glyph unicode="T" horiz-adv-x="1202" d="M143 1261l29 195h1136l-29 -195h-450l-189 -1261h-243l189 1261h-443z" />
<glyph unicode="U" horiz-adv-x="1396" d="M129 497l143 959h243l-143 -959q-6 -41 -7 -76q0 -105 56 -167q74 -82 219 -81q142 0 247.5 85t129.5 239l143 959h243l-143 -959q-39 -253 -216 -385.5t-433 -132.5q-239 1 -379 139q-111 110 -111 283q0 46 8 96z" />
<glyph unicode="V" horiz-adv-x="1300" d="M153 1456h259l188 -1061l10 -105l6 -1l41 104l507 1063h259l-738 -1456h-231z" />
<glyph unicode="W" horiz-adv-x="1781" d="M167 1456h255l58 -1050l6 -1l435 1051h214l121 -1051h6l372 1051h256l-564 -1456h-221l-135 1036l-5 1l-449 -1037h-222z" />
<glyph unicode="X" horiz-adv-x="1300" d="M-30 0l568 734l-340 722h286l224 -538l387 538h288l-556 -722l355 -734h-292l-234 547l-398 -547h-288z" />
<glyph unicode="Y" horiz-adv-x="1300" d="M164 1456h271l246 -708l456 708h271l-647 -947l-76 -509h-242l78 523z" />
<glyph unicode="Z" horiz-adv-x="1150" d="M29 152l776 1109h-619l29 195h918l-21 -146l-781 -1116h700l-29 -194h-969z" />
<glyph unicode="[" horiz-adv-x="561" d="M12 -324l280 2002h408l-27 -190h-165l-227 -1623h165l-26 -189h-408z" />
<glyph unicode="\" horiz-adv-x="855" d="M159 1456h236l371 -1581h-236z" />
<glyph unicode="]" horiz-adv-x="561" d="M-108 -324l26 189h167l227 1623h-167l27 190h410l-280 -2002h-410z" />
<glyph unicode="^" horiz-adv-x="875" d="M82 729l408 727h171l189 -727h-205l-103 413l-4 53l-6 1l-20 -54l-224 -413h-206z" />
<glyph unicode="_" horiz-adv-x="924" d="M-106 -191l29 191h917l-29 -191h-917z" />
<glyph unicode="`" horiz-adv-x="660" d="M206 1513l2 5h277l146 -266h-202z" />
<glyph unicode="a" horiz-adv-x="1114" d="M49 305q24 163 159.5 247.5t363.5 84.5h189l14 95q3 21 3 39q0 59 -32 95q-42 46 -137 47q-80 0 -137 -40t-65 -102l-233 -1l-2 6q13 133 148 229.5t332 96.5q184 0 288 -97q84 -78 83 -207q0 -32 -5 -68l-73 -481q-10 -70 -10 -130t11 -119h-246q-8 38 -10 78 q-1 18 -1 37q0 22 2 43q-61 -76 -150.5 -127.5t-190.5 -51.5q-164 0 -244 88q-63 68 -62 174q0 31 5 64zM292 309q-2 -14 -2 -27q0 -44 27 -72q35 -36 112 -36q88 0 170 47t115 106l24 158h-193q-102 0 -172 -53t-81 -123z" />
<glyph unicode="b" d="M48 0l234 1560h243l-91 -601q60 69 136 106t169 37q195 0 285 -160q64 -112 64 -273q0 -67 -11 -143l-3 -21q-38 -246 -168 -386t-333 -140q-99 0 -168 43.5t-108 126.5l-52 -149h-197zM338 314q22 -66 71.5 -101.5t132.5 -35.5q121 0 193.5 89.5t95.5 238.5l3 21 q9 65 9 120q0 92 -26 156q-42 101 -169 101q-78 0 -139 -37t-104 -102z" />
<glyph unicode="c" horiz-adv-x="1065" d="M79 523l6 35q36 243 184.5 393.5t383.5 150.5q183 0 287 -115q81 -89 81 -214q0 -36 -7 -74l-2 -5h-221q3 21 3 40q0 66 -35 113q-45 60 -135 60q-124 0 -199.5 -102t-96.5 -247l-6 -35q-8 -56 -9 -104q-1 -87 27 -149q42 -96 175 -97q80 0 147 52.5t79 131.5h219l2 -6 q-20 -158 -159.5 -265t-316.5 -107q-226 0 -334 156q-82 118 -82 279q0 52 9 109z" />
<glyph unicode="d" d="M79 505l3 21q40 268 173 422t336 154q86 0 150 -37.5t106 -106.5l91 602h243l-234 -1560h-197l-8 137q-64 -77 -144 -117.5t-177 -40.5q-191 1 -284 147q-68 106 -68 258q0 57 10 121zM322 505q-8 -54 -9 -100q-1 -85 29 -141q44 -86 171 -87q74 0 133 33.5t103 95.5 l71 470q-25 60 -74 93.5t-123 33.5q-119 0 -196.5 -106t-101.5 -271z" />
<glyph unicode="e" horiz-adv-x="1072" d="M80 516l6 40q37 247 192 397q154 149 365 149h3q209 0 305 -136q71 -101 72 -250q0 -51 -9 -108l-19 -131h-677q-3 -27 -3 -52q0 -105 44 -171q54 -82 188 -81q95 0 174 24.5t146 68.5l55 -159q-70 -54 -177.5 -91t-240.5 -37q-228 0 -344 151q-89 115 -89 279 q0 51 9 107zM358 661l2 -6h421l3 19q5 31 5 59q0 67 -28 111q-39 62 -144 63q-90 0 -159 -69t-100 -177z" />
<glyph unicode="f" horiz-adv-x="693" d="M97 902l27 180h165l19 126q27 186 138 279.5t289 93.5q33 0 70 -6t79 -15l-53 -188q-19 4 -43.5 7t-52.5 3q-76 0 -124 -45.5t-60 -128.5l-19 -126h201l-27 -180h-201l-135 -902h-243l135 902h-165z" />
<glyph unicode="g" d="M70 -355l67 191q57 -31 131.5 -48.5t154.5 -17.5q127 0 198.5 57.5t89.5 172.5l16 111q-60 -65 -134.5 -98.5t-164.5 -33.5q-191 0 -284 147q-68 106 -68 258q0 57 10 121l3 21q40 268 173 422t336 154q94 0 161.5 -43.5t108.5 -123.5l46 147h202l-162 -1082 q-33 -217 -177 -327t-384 -110q-77 0 -166.5 22.5t-156.5 59.5zM328 505q-8 -54 -8 -100q0 -85 29 -141q45 -87 171 -87q75 0 134 33.5t103 95.5l71 470q-24 60 -73 93.5t-125 33.5q-120 0 -197.5 -106t-101.5 -271z" />
<glyph unicode="h" d="M45 0l234 1560h243l-92 -612q65 74 148 114t178 40q166 0 249 -110q59 -78 60 -215q0 -54 -10 -118l-99 -659h-243l99 661q7 44 7 79q1 71 -27 108q-40 55 -141 55q-76 0 -138 -29t-106 -80l-119 -794h-243z" />
<glyph unicode="i" horiz-adv-x="531" d="M64 0l162 1082h243l-162 -1082h-243zM266 1347l32 213h243l-32 -213h-243z" />
<glyph unicode="j" horiz-adv-x="537" d="M-223 -420l43 194q17 -5 41.5 -8.5t44.5 -3.5q61 0 103.5 42.5t56.5 132.5l171 1145h243l-171 -1145q-28 -186 -134.5 -280t-274.5 -94q-34 0 -63 4t-60 13zM272 1350l31 210h243l-31 -210h-243z" />
<glyph unicode="k" horiz-adv-x="1072" d="M49 0l234 1560h242l-134 -892h83l355 414h278l2 -5l-440 -493l324 -584h-283l-258 473h-90l-71 -473h-242z" />
<glyph unicode="l" horiz-adv-x="531" d="M64 0l234 1560h243l-234 -1560h-243z" />
<glyph unicode="m" horiz-adv-x="1781" d="M48 0l162 1082h222l-8 -136q64 75 150 115.5t192 40.5q101 0 170.5 -47.5t95.5 -142.5q63 89 153 139.5t201 50.5q158 0 238 -114q56 -80 56 -217q0 -58 -10 -126l-97 -645h-243l97 646q7 52 7 93q0 73 -24 109q-38 54 -135 55q-76 0 -136.5 -43.5t-96.5 -115.5l-5 -43 l-105 -701h-243l97 646q7 49 7 88q1 74 -25 112q-40 58 -135 57q-72 0 -128.5 -30.5t-95.5 -84.5l-118 -788h-243z" />
<glyph unicode="n" d="M46 0l162 1082h222l-9 -150q66 81 153 125.5t188 44.5q162 0 244 -105q59 -75 59 -210q0 -53 -9 -114l-101 -673h-243l101 671q6 42 6 75q1 72 -27 106q-40 50 -142 51q-76 0 -137 -30.5t-106 -85.5l-118 -787h-243z" />
<glyph unicode="o" d="M83 530l3 21q37 251 190.5 401t386.5 150q223 0 337 -156q87 -119 87 -287q0 -52 -8 -108l-3 -21q-39 -253 -192 -402t-387 -149q-223 -1 -337 155q-86 117 -86 283q0 54 9 113zM326 530q-9 -57 -9 -106q0 -92 31 -154q47 -96 178 -97q122 0 203 101t105 256l3 21 q8 53 8 100q-1 95 -33 159q-48 98 -178 97q-122 0 -202.5 -102t-102.5 -254z" />
<glyph unicode="p" d="M-14 -416l224 1498h205l4 -136q63 76 142.5 116t176.5 40q192 0 283 -160q65 -115 65 -276q0 -66 -11 -140l-3 -21q-38 -245 -168.5 -385.5t-330.5 -140.5q-90 0 -156.5 34.5t-108.5 101.5l-79 -531h-243zM334 291q24 -57 73 -87.5t126 -30.5q119 0 196.5 93t100.5 239 l3 21q9 60 9 112q0 96 -30 162q-47 103 -172 103q-73 0 -131.5 -33.5t-101.5 -92.5z" />
<glyph unicode="q" d="M79 505l3 21q40 268 173 422t336 154q91 0 157 -40.5t107 -116.5l50 137h197l-224 -1498h-243l77 519q-60 -61 -132 -92.5t-159 -31.5q-191 0 -284 147q-68 106 -68 258q0 57 10 121zM322 505q-8 -55 -8 -102q0 -85 28 -142q44 -88 170 -88q72 0 129 31t100 88l75 500 q-26 54 -73.5 84.5t-118.5 30.5q-119 0 -197 -108t-102 -273z" />
<glyph unicode="r" horiz-adv-x="719" d="M48 0l162 1082h222l-7 -153q53 82 124 127.5t156 45.5q21 0 40.5 -3.5t34.5 -8.5l-64 -227l-103 4q-69 0 -121.5 -31.5t-88.5 -88.5l-112 -747h-243z" />
<glyph unicode="s" horiz-adv-x="1065" d="M60 335l2 6h227q-1 -13 -2 -24q0 -75 51 -113q58 -43 150 -43q90 0 148 37.5t66 97.5q1 9 1 18q-1 45 -35 75q-42 36 -170 65q-185 39 -276 115q-76 63 -76 163q0 20 3 41q19 141 147 235t317 94q187 0 295 -100q88 -82 89 -190q0 -24 -5 -49l-2 -6h-234q2 12 2 23 q0 54 -38 93q-44 47 -132 47q-84 0 -138 -40.5t-62 -97.5q-1 -10 -1 -19q-1 -44 31 -70q38 -32 170 -58q194 -39 284 -117q75 -65 74 -166q0 -20 -3 -42q-21 -152 -153 -241.5t-331 -89.5q-202 -1 -313 109q-91 89 -91 198q0 24 5 49z" />
<glyph unicode="t" horiz-adv-x="701" d="M87 902l27 180h165l40 263h242l-40 -263h194l-27 -180h-194l-89 -598q-4 -23 -4 -41q0 -38 17 -56q25 -27 74 -27q19 0 39 3.5t38 9.5l-1 -178q-33 -17 -77 -26.5t-90 -9.5q-131 -1 -197 79q-48 58 -48 162q0 39 7 84l89 598h-165z" />
<glyph unicode="u" d="M110 449l95 633h242l-95 -635q-10 -64 -10 -112q0 -71 22 -103q36 -54 133 -55q85 0 150 33t109 95l117 777h243l-162 -1082h-209l2 155q-63 -86 -148 -131t-189 -45q-168 -1 -252 115q-59 81 -59 223q0 60 11 132z" />
<glyph unicode="v" horiz-adv-x="1038" d="M114 1082h251l114 -716l4 -87l6 -1l33 88l322 716h251l-546 -1082h-211z" />
<glyph unicode="w" horiz-adv-x="1530" d="M119 1082h243l49 -753l6 -1l339 754h177l116 -762h6l272 762h243l-458 -1082h-199l-121 715l-6 1l-334 -716h-199z" />
<glyph unicode="x" horiz-adv-x="1038" d="M-47 0l432 547l-260 535h276l142 -371l255 371h279l-420 -535l268 -547h-276l-152 380l-266 -380h-278z" />
<glyph unicode="y" horiz-adv-x="1038" d="M-44 -417l56 188q12 -1 35.5 -3t36.5 -2q63 0 112 46.5t80 102.5l55 97l-233 1070h265l109 -648l7 -108l6 -1l351 757h266l-635 -1246q-60 -113 -150 -193t-233 -80q-28 0 -62.5 6t-65.5 14z" />
<glyph unicode="z" horiz-adv-x="1038" d="M5 0l24 159l649 722l-2 5h-527l29 196h842l-23 -154l-656 -729l2 -5h570l-29 -194h-879z" />
<glyph unicode="{" horiz-adv-x="687" d="M55 529l5 37l15 106l5 35q94 0 151.5 59t72.5 163l28 203q24 177 122.5 293.5t303.5 171.5l28 -140q-102 -33 -154.5 -117t-70.5 -208l-28 -203q-16 -109 -70 -189t-148 -124q79 -47 111.5 -127.5t19.5 -179.5l-28 -203q-19 -128 10 -210t123 -115l-67 -141 q-188 55 -254 175t-41 291l28 203q15 107 -24 163.5t-138 56.5z" />
<glyph unicode="|" horiz-adv-x="514" d="M24 -270l258 1726h214l-258 -1726h-214z" />
<glyph unicode="}" horiz-adv-x="687" d="M-79 -219q102 33 155 117t71 208l28 203q15 110 71 189.5t156 122.5q-84 44 -119.5 124.5t-20.5 183.5l28 203q18 129 -11 210.5t-123 114.5l68 140q187 -55 252.5 -174.5t41.5 -290.5l-28 -203q-16 -110 23 -166t140 -56l-6 -43l-13 -92l-6 -43q-96 0 -153.5 -59 t-71.5 -161l-28 -203q-25 -177 -123.5 -294t-301.5 -172z" />
<glyph unicode="~" horiz-adv-x="1361" d="M106 460q22 156 121.5 255.5t235.5 99.5q82 0 155 -34t143 -101q47 -48 87.5 -69t87.5 -21q56 0 108 55t62 128l168 -23q-22 -157 -124 -260t-236 -103q-84 0 -154 33t-142 103q-49 46 -89.5 68t-86.5 22q-58 0 -108.5 -52t-60.5 -123z" />
<glyph unicode="&#xa2;" horiz-adv-x="1149" d="M79 523l6 35q33 220 159 365.5t327 172.5l34 222h200l-35 -231q132 -36 201.5 -142t47.5 -251h-228q13 93 -32 153t-135 60q-124 0 -199.5 -102t-96.5 -247l-6 -35q-23 -157 18.5 -253.5t174.5 -96.5q80 0 147 52.5t79 131.5h220l2 -6q-16 -129 -116.5 -227.5 t-240.5 -130.5l-36 -238h-200l35 230q-185 29 -271 179t-55 359z" />
<glyph unicode="&#xa3;" horiz-adv-x="1205" d="M64 0l29 194h10q49 13 85.5 101.5t51.5 182.5l13 121h-162l29 196h155l27 238q32 215 164 329.5t330 114.5q199 0 300 -109.5t71 -285.5l-3 -6h-235q16 110 -30 158t-133 48q-82 0 -143 -66t-78 -183l-26 -238h388l-29 -196h-381l-12 -113q-13 -85 -46.5 -160t-83.5 -132 h725l-30 -194h-986z" />
<glyph unicode="&#xa5;" horiz-adv-x="1248" d="M104 306l22 146h357l21 143h-357l22 147h287l-292 714h272l226 -641l419 641h271l-504 -714h276l-22 -147h-355l-21 -143h355l-22 -146h-355l-46 -306h-243l46 306h-357z" />
<glyph unicode="&#xa8;" horiz-adv-x="1054" d="M264 1252l29 204h241l-29 -204h-241zM747 1252l29 204h242l-29 -204h-242z" />
<glyph unicode="&#xa9;" horiz-adv-x="1604" d="M116 729q49 327 285.5 537t536.5 210q283 0 463.5 -218t133.5 -529q-49 -328 -286 -539t-535 -211q-284 0 -464.5 218.5t-133.5 531.5zM238 729q-41 -274 103 -449.5t392 -175.5q235 0 437.5 182t242.5 443q41 273 -102.5 447.5t-390.5 174.5q-237 0 -440 -181t-242 -441 zM454 669l18 119q26 179 135.5 283t271.5 104q152 0 231 -80.5t53 -228.5l-2 -5h-149q14 97 -24 138t-129 41t-154 -69.5t-79 -181.5l-18 -120q-18 -119 22.5 -185.5t135.5 -66.5q87 0 139 42t66 137h147l2 -6q-19 -156 -117.5 -232t-257.5 -76q-154 0 -235.5 107.5 t-55.5 279.5z" />
<glyph unicode="&#xab;" horiz-adv-x="994" d="M93 506l1 6l1 7l1 6l347 390h167l-308 -400l188 -399h-167zM428 506l1 6l1 7l1 6l347 390h167l-308 -400l188 -399h-167z" />
<glyph unicode="&#xad;" horiz-adv-x="910" d="M156 521l30 196h590l-30 -196h-590z" />
<glyph unicode="&#xae;" horiz-adv-x="1604" d="M116 729q49 327 285.5 537t536.5 210q283 0 463.5 -218t133.5 -529q-49 -328 -286 -539t-535 -211q-284 0 -464.5 218.5t-133.5 531.5zM238 729q-41 -274 103 -449.5t392 -175.5q235 0 437.5 182t242.5 443q41 273 -102.5 447.5t-390.5 174.5q-237 0 -440 -181t-242 -441 zM469 316l128 850h281q146 0 225 -67.5t61 -192.5q-10 -62 -47.5 -107t-100.5 -75q55 -29 75.5 -83t10.5 -126l-8 -56q-7 -43 -8 -74.5t6 -52.5l-3 -16h-155q-5 21 -1.5 59t10.5 85l8 54q11 74 -17 106.5t-105 32.5h-158l-51 -337h-151zM691 787h143q68 0 119.5 30.5 t59.5 85.5q11 75 -22.5 102.5t-132.5 27.5h-130z" />
<glyph unicode="&#xb4;" horiz-adv-x="689" d="M229 1257l224 261h274l2 -6l-310 -260h-188z" />
<glyph unicode="&#xb8;" horiz-adv-x="528" d="M-17 -447l13 137q60 0 101.5 22.5t49.5 66.5q6 46 -24.5 63t-113.5 22l52 139h177l-19 -54q62 -11 99 -52t25 -121q-16 -106 -108.5 -164.5t-251.5 -58.5z" />
<glyph unicode="&#xbb;" horiz-adv-x="994" d="M49 151l307 400l-187 399h167l229 -390l-2 -13l-1 -6l-346 -390h-167zM395 151l307 400l-187 399h167l229 -390l-2 -13l-1 -6l-346 -390h-167z" />
<glyph unicode="&#xc0;" horiz-adv-x="1300" d="M-48 0l726 1456h231l284 -1456h-251l-60 340h-516l-163 -340h-251zM464 543h382l-100 572l-6 1zM488 1861l2 5h277l146 -266h-202z" />
<glyph unicode="&#xc1;" horiz-adv-x="1300" d="M-48 0l726 1456h231l284 -1456h-251l-60 340h-516l-163 -340h-251zM464 543h382l-100 572l-6 1zM694 1604l224 261h274l2 -6l-310 -260h-188z" />
<glyph unicode="&#xc2;" horiz-adv-x="1300" d="M-48 0l726 1456h231l284 -1456h-251l-60 340h-516l-163 -340h-251zM464 543h382l-100 572l-6 1zM476 1597l4 26l300 240h143l229 -242l-3 -24h-195l-122 139l-163 -139h-193z" />
<glyph unicode="&#xc4;" horiz-adv-x="1300" d="M-48 0l726 1456h231l284 -1456h-251l-60 340h-516l-163 -340h-251zM464 543h382l-100 572l-6 1zM441 1601l29 204h241l-29 -204h-241zM924 1601l29 204h242l-29 -204h-242z" />
<glyph unicode="&#xc8;" horiz-adv-x="1134" d="M73 0l218 1456h908l-29 -195h-666l-61 -411h571l-30 -195h-570l-69 -461h672l-29 -194h-915zM447 1861l2 5h277l146 -266h-202z" />
<glyph unicode="&#xc9;" horiz-adv-x="1134" d="M73 0l218 1456h908l-29 -195h-666l-61 -411h571l-30 -195h-570l-69 -461h672l-29 -194h-915zM653 1604l224 261h274l2 -6l-310 -260h-188z" />
<glyph unicode="&#xca;" horiz-adv-x="1134" d="M73 0l218 1456h908l-29 -195h-666l-61 -411h571l-30 -195h-570l-69 -461h672l-29 -194h-915zM435 1597l4 26l300 240h143l229 -242l-3 -24h-195l-122 139l-163 -139h-193z" />
<glyph unicode="&#xcb;" horiz-adv-x="1134" d="M73 0l218 1456h908l-29 -195h-666l-61 -411h571l-30 -195h-570l-69 -461h672l-29 -194h-915zM400 1601l29 204h241l-29 -204h-241zM883 1601l29 204h242l-29 -204h-242z" />
<glyph unicode="&#xcc;" horiz-adv-x="589" d="M93 0l218 1456h243l-218 -1456h-243zM132 1861l2 5h277l146 -266h-202z" />
<glyph unicode="&#xcd;" horiz-adv-x="589" d="M93 0l218 1456h243l-218 -1456h-243zM337 1604l224 261h274l2 -6l-310 -260h-188z" />
<glyph unicode="&#xce;" horiz-adv-x="589" d="M93 0l218 1456h243l-218 -1456h-243zM120 1597l4 26l300 240h143l229 -242l-3 -24h-195l-122 139l-163 -139h-193z" />
<glyph unicode="&#xcf;" horiz-adv-x="589" d="M93 0l218 1456h243l-218 -1456h-243zM85 1601l29 204h241l-29 -204h-241zM568 1601l29 204h242l-29 -204h-242z" />
<glyph unicode="&#xd2;" horiz-adv-x="1402" d="M115 597l39 262q41 276 229 447t453 171q256 0 402 -178q116 -141 116 -334q0 -51 -8 -106l-39 -262q-43 -278 -234 -448t-462 -170q-251 0 -393 177q-111 138 -112 329q0 54 9 112zM358 597q-8 -53 -8 -101q0 -122 54 -204q75 -114 237 -114q161 0 278 118.5t145 300.5 l39 264q7 50 7 94q0 125 -58 209q-78 114 -246 113q-155 0 -268.5 -118t-140.5 -298zM541 1882l2 5h277l146 -266h-202z" />
<glyph unicode="&#xd3;" horiz-adv-x="1402" d="M115 597l39 262q41 276 229 447t453 171q256 0 402 -178q116 -141 116 -334q0 -51 -8 -106l-39 -262q-43 -278 -234 -448t-462 -170q-251 0 -393 177q-111 138 -112 329q0 54 9 112zM358 597q-8 -53 -8 -101q0 -122 54 -204q75 -114 237 -114q161 0 278 118.5t145 300.5 l39 264q7 50 7 94q0 125 -58 209q-78 114 -246 113q-155 0 -268.5 -118t-140.5 -298zM747 1625l224 261h274l2 -6l-310 -260h-188z" />
<glyph unicode="&#xd4;" horiz-adv-x="1402" d="M115 597l39 262q41 276 229 447t453 171q256 0 402 -178q116 -141 116 -334q0 -51 -8 -106l-39 -262q-43 -278 -234 -448t-462 -170q-251 0 -393 177q-111 138 -112 329q0 54 9 112zM358 597q-8 -53 -8 -101q0 -122 54 -204q75 -114 237 -114q161 0 278 118.5t145 300.5 l39 264q7 50 7 94q0 125 -58 209q-78 114 -246 113q-155 0 -268.5 -118t-140.5 -298zM529 1618l4 26l300 240h143l229 -242l-3 -24h-195l-122 139l-163 -139h-193z" />
<glyph unicode="&#xd6;" horiz-adv-x="1402" d="M115 597l39 262q41 276 229 447t453 171q256 0 402 -178q116 -141 116 -334q0 -51 -8 -106l-39 -262q-43 -278 -234 -448t-462 -170q-251 0 -393 177q-111 138 -112 329q0 54 9 112zM358 597q-8 -53 -8 -101q0 -122 54 -204q75 -114 237 -114q161 0 278 118.5t145 300.5 l39 264q7 50 7 94q0 125 -58 209q-78 114 -246 113q-155 0 -268.5 -118t-140.5 -298zM495 1622l29 204h241l-29 -204h-241zM978 1622l29 204h242l-29 -204h-242z" />
<glyph unicode="&#xd9;" horiz-adv-x="1396" d="M129 497l143 959h243l-143 -959q-6 -41 -7 -76q0 -105 56 -167q74 -82 219 -81q142 0 247.5 85t129.5 239l143 959h243l-143 -959q-39 -253 -216 -385.5t-433 -132.5q-239 1 -379 139q-111 110 -111 283q0 46 8 96zM537 1861l2 5h277l146 -266h-202z" />
<glyph unicode="&#xda;" horiz-adv-x="1396" d="M129 497l143 959h243l-143 -959q-6 -41 -7 -76q0 -105 56 -167q74 -82 219 -81q142 0 247.5 85t129.5 239l143 959h243l-143 -959q-39 -253 -216 -385.5t-433 -132.5q-239 1 -379 139q-111 110 -111 283q0 46 8 96zM743 1604l224 261h274l2 -6l-310 -260h-188z" />
<glyph unicode="&#xdb;" horiz-adv-x="1396" d="M129 497l143 959h243l-143 -959q-6 -41 -7 -76q0 -105 56 -167q74 -82 219 -81q142 0 247.5 85t129.5 239l143 959h243l-143 -959q-39 -253 -216 -385.5t-433 -132.5q-239 1 -379 139q-111 110 -111 283q0 46 8 96zM525 1597l4 26l300 240h143l229 -242l-3 -24h-195 l-122 139l-163 -139h-193z" />
<glyph unicode="&#xdc;" horiz-adv-x="1396" d="M129 497l143 959h243l-143 -959q-6 -41 -7 -76q0 -105 56 -167q74 -82 219 -81q142 0 247.5 85t129.5 239l143 959h243l-143 -959q-39 -253 -216 -385.5t-433 -132.5q-239 1 -379 139q-111 110 -111 283q0 46 8 96zM490 1601l29 204h241l-29 -204h-241zM973 1601l29 204 h242l-29 -204h-242z" />
<glyph unicode="&#xdd;" horiz-adv-x="1300" d="M164 1456h271l246 -708l456 708h271l-647 -947l-76 -509h-242l78 523zM694 1604l224 261h274l2 -6l-310 -260h-188z" />
<glyph unicode="&#xe0;" horiz-adv-x="1114" d="M49 305q24 163 159.5 247.5t363.5 84.5h189l14 95q3 21 3 39q0 59 -32 95q-42 46 -137 47q-80 0 -137 -40t-65 -102l-233 -1l-2 6q13 133 148 229.5t332 96.5q184 0 288 -97q84 -78 83 -207q0 -32 -5 -68l-73 -481q-10 -70 -10 -130t11 -119h-246q-8 38 -10 78 q-1 18 -1 37q0 22 2 43q-61 -76 -150.5 -127.5t-190.5 -51.5q-164 0 -244 88q-63 68 -62 174q0 31 5 64zM292 309q-2 -14 -2 -27q0 -44 27 -72q35 -36 112 -36q88 0 170 47t115 106l24 158h-193q-102 0 -172 -53t-81 -123zM340 1539l2 5h277l146 -266h-202z" />
<glyph unicode="&#xe2;" horiz-adv-x="1114" d="M49 305q24 163 159.5 247.5t363.5 84.5h189l14 95q3 21 3 39q0 59 -32 95q-42 46 -137 47q-80 0 -137 -40t-65 -102l-233 -1l-2 6q13 133 148 229.5t332 96.5q184 0 288 -97q84 -78 83 -207q0 -32 -5 -68l-73 -481q-10 -70 -10 -130t11 -119h-246q-8 38 -10 78 q-1 18 -1 37q0 22 2 43q-61 -76 -150.5 -127.5t-190.5 -51.5q-164 0 -244 88q-63 68 -62 174q0 31 5 64zM292 309q-2 -14 -2 -27q0 -44 27 -72q35 -36 112 -36q88 0 170 47t115 106l24 158h-193q-102 0 -172 -53t-81 -123zM327 1275l4 26l300 240h143l229 -242l-3 -24h-195 l-122 139l-163 -139h-193z" />
<glyph unicode="&#xe4;" horiz-adv-x="1114" d="M49 305q24 163 159.5 247.5t363.5 84.5h189l14 95q3 21 3 39q0 59 -32 95q-42 46 -137 47q-80 0 -137 -40t-65 -102l-233 -1l-2 6q13 133 148 229.5t332 96.5q184 0 288 -97q84 -78 83 -207q0 -32 -5 -68l-73 -481q-10 -70 -10 -130t11 -119h-246q-8 38 -10 78 q-1 18 -1 37q0 22 2 43q-61 -76 -150.5 -127.5t-190.5 -51.5q-164 0 -244 88q-63 68 -62 174q0 31 5 64zM292 309q-2 -14 -2 -27q0 -44 27 -72q35 -36 112 -36q88 0 170 47t115 106l24 158h-193q-102 0 -172 -53t-81 -123zM293 1279l29 204h241l-29 -204h-241zM776 1279 l29 204h242l-29 -204h-242z" />
<glyph unicode="&#xe8;" horiz-adv-x="1072" d="M80 516l6 40q37 247 192 397q154 149 365 149h3q209 0 305 -136q71 -101 72 -250q0 -51 -9 -108l-19 -131h-677q-3 -27 -3 -52q0 -105 44 -171q54 -82 188 -81q95 0 174 24.5t146 68.5l55 -159q-70 -54 -177.5 -91t-240.5 -37q-228 0 -344 151q-89 115 -89 279 q0 51 9 107zM358 661l2 -6h421l3 19q5 31 5 59q0 67 -28 111q-39 62 -144 63q-90 0 -159 -69t-100 -177zM328 1540l2 5h277l146 -266h-202z" />
<glyph unicode="&#xe9;" horiz-adv-x="1072" d="M80 516l6 40q37 247 192 397q154 149 365 149h3q209 0 305 -136q71 -101 72 -250q0 -51 -9 -108l-19 -131h-677q-3 -27 -3 -52q0 -105 44 -171q54 -82 188 -81q95 0 174 24.5t146 68.5l55 -159q-70 -54 -177.5 -91t-240.5 -37q-228 0 -344 151q-89 115 -89 279 q0 51 9 107zM358 661l2 -6h421l3 19q5 31 5 59q0 67 -28 111q-39 62 -144 63q-90 0 -159 -69t-100 -177zM534 1283l224 261h274l2 -6l-310 -260h-188z" />
<glyph unicode="&#xea;" horiz-adv-x="1072" d="M80 516l6 40q37 247 192 397q154 149 365 149h3q209 0 305 -136q71 -101 72 -250q0 -51 -9 -108l-19 -131h-677q-3 -27 -3 -52q0 -105 44 -171q54 -82 188 -81q95 0 174 24.5t146 68.5l55 -159q-70 -54 -177.5 -91t-240.5 -37q-228 0 -344 151q-89 115 -89 279 q0 51 9 107zM358 661l2 -6h421l3 19q5 31 5 59q0 67 -28 111q-39 62 -144 63q-90 0 -159 -69t-100 -177zM316 1276l4 26l300 240h143l229 -242l-3 -24h-195l-122 139l-163 -139h-193z" />
<glyph unicode="&#xeb;" horiz-adv-x="1072" d="M80 516l6 40q37 247 192 397q154 149 365 149h3q209 0 305 -136q71 -101 72 -250q0 -51 -9 -108l-19 -131h-677q-3 -27 -3 -52q0 -105 44 -171q54 -82 188 -81q95 0 174 24.5t146 68.5l55 -159q-70 -54 -177.5 -91t-240.5 -37q-228 0 -344 151q-89 115 -89 279 q0 51 9 107zM358 661l2 -6h421l3 19q5 31 5 59q0 67 -28 111q-39 62 -144 63q-90 0 -159 -69t-100 -177zM281 1280l29 204h241l-29 -204h-241zM764 1280l29 204h242l-29 -204h-242z" />
<glyph unicode="&#xec;" horiz-adv-x="538" d="M63 0l162 1082h243l-162 -1082h-243zM52 1518l2 5h277l146 -266h-202z" />
<glyph unicode="&#xed;" horiz-adv-x="538" d="M63 0l162 1082h243l-162 -1082h-243zM257 1261l224 261h274l2 -6l-310 -260h-188z" />
<glyph unicode="&#xee;" horiz-adv-x="538" d="M63 0l162 1082h243l-162 -1082h-243zM39 1254l4 26l300 240h143l229 -242l-3 -24h-195l-122 139l-163 -139h-193z" />
<glyph unicode="&#xef;" horiz-adv-x="538" d="M63 0l162 1082h243l-162 -1082h-243zM5 1258l29 204h241l-29 -204h-241zM488 1258l29 204h242l-29 -204h-242z" />
<glyph unicode="&#xf2;" d="M83 530l3 21q37 251 190.5 401t386.5 150q223 0 337 -156q87 -119 87 -287q0 -52 -8 -108l-3 -21q-39 -253 -192 -402t-387 -149q-223 -1 -337 155q-86 117 -86 283q0 54 9 113zM326 530q-9 -57 -9 -106q0 -92 31 -154q47 -96 178 -97q122 0 203 101t105 256l3 21 q8 53 8 100q-1 95 -33 159q-48 98 -178 97q-122 0 -202.5 -102t-102.5 -254zM368 1539l2 5h277l146 -266h-202z" />
<glyph unicode="&#xf3;" d="M83 530l3 21q37 251 190.5 401t386.5 150q223 0 337 -156q87 -119 87 -287q0 -52 -8 -108l-3 -21q-39 -253 -192 -402t-387 -149q-223 -1 -337 155q-86 117 -86 283q0 54 9 113zM326 530q-9 -57 -9 -106q0 -92 31 -154q47 -96 178 -97q122 0 203 101t105 256l3 21 q8 53 8 100q-1 95 -33 159q-48 98 -178 97q-122 0 -202.5 -102t-102.5 -254zM574 1282l224 261h274l2 -6l-310 -260h-188z" />
<glyph unicode="&#xf4;" d="M83 530l3 21q37 251 190.5 401t386.5 150q223 0 337 -156q87 -119 87 -287q0 -52 -8 -108l-3 -21q-39 -253 -192 -402t-387 -149q-223 -1 -337 155q-86 117 -86 283q0 54 9 113zM326 530q-9 -57 -9 -106q0 -92 31 -154q47 -96 178 -97q122 0 203 101t105 256l3 21 q8 53 8 100q-1 95 -33 159q-48 98 -178 97q-122 0 -202.5 -102t-102.5 -254zM355 1275l4 26l300 240h143l229 -242l-3 -24h-195l-122 139l-163 -139h-193z" />
<glyph unicode="&#xf6;" d="M83 530l3 21q37 251 190.5 401t386.5 150q223 0 337 -156q87 -119 87 -287q0 -52 -8 -108l-3 -21q-39 -253 -192 -402t-387 -149q-223 -1 -337 155q-86 117 -86 283q0 54 9 113zM326 530q-9 -57 -9 -106q0 -92 31 -154q47 -96 178 -97q122 0 203 101t105 256l3 21 q8 53 8 100q-1 95 -33 159q-48 98 -178 97q-122 0 -202.5 -102t-102.5 -254zM321 1279l29 204h241l-29 -204h-241zM804 1279l29 204h242l-29 -204h-242z" />
<glyph unicode="&#xf9;" d="M110 449l95 633h242l-95 -635q-10 -64 -10 -112q0 -71 22 -103q36 -54 133 -55q85 0 150 33t109 95l117 777h243l-162 -1082h-209l2 155q-63 -86 -148 -131t-189 -45q-168 -1 -252 115q-59 81 -59 223q0 60 11 132zM364 1518l2 5h277l146 -266h-202z" />
<glyph unicode="&#xfa;" d="M110 449l95 633h242l-95 -635q-10 -64 -10 -112q0 -71 22 -103q36 -54 133 -55q85 0 150 33t109 95l117 777h243l-162 -1082h-209l2 155q-63 -86 -148 -131t-189 -45q-168 -1 -252 115q-59 81 -59 223q0 60 11 132zM570 1261l224 261h274l2 -6l-310 -260h-188z" />
<glyph unicode="&#xfb;" d="M110 449l95 633h242l-95 -635q-10 -64 -10 -112q0 -71 22 -103q36 -54 133 -55q85 0 150 33t109 95l117 777h243l-162 -1082h-209l2 155q-63 -86 -148 -131t-189 -45q-168 -1 -252 115q-59 81 -59 223q0 60 11 132zM351 1254l4 26l300 240h143l229 -242l-3 -24h-195 l-122 139l-163 -139h-193z" />
<glyph unicode="&#xfc;" d="M110 449l95 633h242l-95 -635q-10 -64 -10 -112q0 -71 22 -103q36 -54 133 -55q85 0 150 33t109 95l117 777h243l-162 -1082h-209l2 155q-63 -86 -148 -131t-189 -45q-168 -1 -252 115q-59 81 -59 223q0 60 11 132zM317 1258l29 204h241l-29 -204h-241zM800 1258l29 204 h242l-29 -204h-242z" />
<glyph unicode="&#xfd;" horiz-adv-x="1038" d="M-44 -417l56 188q12 -1 35.5 -3t36.5 -2q63 0 112 46.5t80 102.5l55 97l-233 1070h265l109 -648l7 -108l6 -1l351 757h266l-635 -1246q-60 -113 -150 -193t-233 -80q-28 0 -62.5 6t-65.5 14zM510 1261l224 261h274l2 -6l-310 -260h-188z" />
<glyph unicode="&#xff;" horiz-adv-x="1038" d="M-44 -417l56 188q12 -1 35.5 -3t36.5 -2q63 0 112 46.5t80 102.5l55 97l-233 1070h265l109 -648l7 -108l6 -1l351 757h266l-635 -1246q-60 -113 -150 -193t-233 -80q-28 0 -62.5 6t-65.5 14zM258 1258l29 204h241l-29 -204h-241zM741 1258l29 204h242l-29 -204h-242z" />
<glyph unicode="&#x131;" horiz-adv-x="538" d="M63 0l162 1082h243l-162 -1082h-243z" />
<glyph unicode="&#x178;" horiz-adv-x="1300" d="M164 1456h271l246 -708l456 708h271l-647 -947l-76 -509h-242l78 523zM441 1601l29 204h241l-29 -204h-241zM924 1601l29 204h242l-29 -204h-242z" />
<glyph unicode="&#x2c6;" horiz-adv-x="998" d="M263 1252l4 26l300 240h143l229 -242l-3 -24h-195l-122 139l-163 -139h-193z" />
<glyph unicode="&#x2da;" horiz-adv-x="690" d="M276 1305q10 76 70.5 124t137.5 48q71 0 117 -50t35 -122q-12 -77 -69.5 -122t-133.5 -45q-74 0 -121 47.5t-36 119.5zM384 1305q-6 -32 12.5 -52t50.5 -20q28 0 52 20.5t29 51.5q5 33 -12 54.5t-47 21.5t-55.5 -22t-29.5 -54z" />
<glyph unicode="&#x2dc;" horiz-adv-x="984" d="M231 1273q13 97 82 165t160 68q53 0 137 -44.5t137 -44.5q36 0 69.5 32.5t40.5 77.5l125 -39q-14 -98 -82.5 -163.5t-159.5 -65.5q-67 0 -144.5 44.5t-129.5 44.5q-37 0 -70 -32.5t-39 -77.5z" />
<glyph unicode="&#x2000;" horiz-adv-x="943" />
<glyph unicode="&#x2001;" horiz-adv-x="1887" />
<glyph unicode="&#x2002;" horiz-adv-x="943" />
<glyph unicode="&#x2003;" horiz-adv-x="1887" />
<glyph unicode="&#x2004;" horiz-adv-x="629" />
<glyph unicode="&#x2005;" horiz-adv-x="471" />
<glyph unicode="&#x2006;" horiz-adv-x="314" />
<glyph unicode="&#x2007;" horiz-adv-x="314" />
<glyph unicode="&#x2008;" horiz-adv-x="235" />
<glyph unicode="&#x2009;" horiz-adv-x="377" />
<glyph unicode="&#x200a;" horiz-adv-x="104" />
<glyph unicode="&#x2010;" horiz-adv-x="910" d="M156 521l30 196h590l-30 -196h-590z" />
<glyph unicode="&#x2011;" horiz-adv-x="910" d="M156 521l30 196h590l-30 -196h-590z" />
<glyph unicode="&#x2012;" horiz-adv-x="910" d="M156 521l30 196h590l-30 -196h-590z" />
<glyph unicode="&#x2013;" horiz-adv-x="1415" d="M183.298 621l39 196h1085.49l-38.999 -196h-1085.49z" />
<glyph unicode="&#x2014;" horiz-adv-x="1665" d="M192.596 621l47.999 196h1335.98l-47.999 -196h-1335.98z" />
<glyph unicode="&#x2018;" horiz-adv-x="541" d="M201 912l33 223l150 321h119l-48 -323l-33 -221h-221z" />
<glyph unicode="&#x2019;" horiz-adv-x="536" d="M217 912l47 313l34 231h221l-34 -229l-149 -315h-119z" />
<glyph unicode="&#x201a;" horiz-adv-x="569" d="M49 -262l39 265l40 266h228l-37 -249l-144 -282h-126z" />
<glyph unicode="&#x201c;" horiz-adv-x="831" d="M179 912l33 223l150 321h119l-48 -323l-33 -221h-221zM507 912l33 223l150 321h119l-48 -323l-33 -221h-221z" />
<glyph unicode="&#x201d;" horiz-adv-x="821" d="M182 912l47 313l34 231h221l-34 -229l-149 -315h-119zM518 912l47 313l34 231h221l-34 -229l-149 -315h-119z" />
<glyph unicode="&#x201e;" horiz-adv-x="826" d="M33 -233l44 295l35 228h214l-33 -217l-148 -306h-112zM358 -233l46 303l33 220h214l-33 -217l-148 -306h-112z" />
<glyph unicode="&#x2026;" horiz-adv-x="1446" d="M73 0l35 233h242l-35 -233h-242zM516 0l35 233h242l-35 -233h-242zM936 0l35 233h242l-35 -233h-242z" />
<glyph unicode="&#x202f;" horiz-adv-x="377" />
<glyph unicode="&#x2039;" horiz-adv-x="626" d="M109 541l1 6l1 7l1 6l347 390h167l-308 -400l188 -399h-167z" />
<glyph unicode="&#x203a;" horiz-adv-x="617" d="M27 151l307 400l-187 399h167l229 -390l-2 -13l-1 -6l-346 -390h-167z" />
<glyph unicode="&#x205f;" horiz-adv-x="471" />
<glyph unicode="&#x20ac;" horiz-adv-x="1101" d="M69 496l22 142h145l24 156h-146l21 142h146l2 12q37 250 202.5 389.5t405.5 139.5q58 0 116.5 -8t121.5 -23l-50 -199q-52 16 -107 25.5t-111 9.5q-127 0 -219.5 -90.5t-114.5 -241.5l-2 -14h459l-21 -142h-460l-23 -156h460l-22 -142h-460v-2q-24 -156 40 -238.5 t199 -82.5q55 0 113.5 8.5t112.5 25.5l-9 -197q-59 -15 -121.5 -23t-124.5 -8q-228 0 -358.5 140.5t-94.5 374.5v2h-146z" />
<glyph unicode="&#x2122;" horiz-adv-x="1289" d="M224 1361l14 95h391l-14 -95h-138l-66 -443h-117l66 443h-136zM622 916l81 540h137l85 -373h6l198 373h131l-81 -540h-110l47 316l-5 2l-177 -318h-61l-84 330h-6l-50 -330h-111z" />
<glyph unicode="&#x2212;" horiz-adv-x="1155" d="M171 621l30 196h835l-30 -196h-835z" />
<glyph unicode="&#xe000;" horiz-adv-x="1080" d="M0 1080h1080v-1080h-1080v1080z" />
</font>
</defs></svg> 