<?xml version="1.0" standalone="no"?>
<!DOCTYPE svg PUBLIC "-//W3C//DTD SVG 1.1//EN" "http://www.w3.org/Graphics/SVG/1.1/DTD/svg11.dtd" >
<svg xmlns="http://www.w3.org/2000/svg">
<metadata>
This is a custom SVG webfont generated by Font Squirrel.
Copyright   : Font data copyright Google 2011
Designer    : Google
Foundry URL : Googlecom
</metadata>
<defs>
<font id="RobotoRegular" horiz-adv-x="1164" >
<font-face units-per-em="2048" ascent="1536" descent="-512" />
<missing-glyph horiz-adv-x="509" />
<glyph unicode=" "  horiz-adv-x="509" />
<glyph unicode="&#x09;" horiz-adv-x="509" />
<glyph unicode="&#xa0;" horiz-adv-x="509" />
<glyph unicode="!" horiz-adv-x="539" d="M171 0v204h198v-204h-198zM171 478v978h197v-978h-197z" />
<glyph unicode="&#x22;" horiz-adv-x="733" d="M126 936l1 240v280h197v-270l-101 -250h-97zM435 936v520h198v-270l-101 -250h-97z" />
<glyph unicode="#" horiz-adv-x="1276" d="M70 410v140h264l68 348h-256v142h284l82 416h151l-82 -416h255l82 416h151l-82 -416h199v-142h-226l-68 -348h219v-140h-247l-80 -410h-152l80 410h-255l-80 -410h-151l80 410h-236zM485 550h255l68 348h-255z" />
<glyph unicode="$" horiz-adv-x="1193" d="M131 424l2 5h190q0 -154 78 -219.5t190 -65.5q129 0 201.5 61.5t72.5 170.5q0 90 -63.5 153.5t-210.5 113.5q-202 61 -305 163t-103 272q0 165 95 269t261 125v221h158v-222q167 -22 259.5 -137t92.5 -308h-196q0 127 -63 206t-174 79q-118 0 -177 -61.5t-59 -168.5 q0 -97 61 -157t219 -114q204 -66 303 -164.5t99 -267.5q0 -172 -103 -273.5t-283 -120.5v-192h-157v191q-172 18 -282 125.5t-106 315.5z" />
<glyph unicode="%" horiz-adv-x="1498" d="M104 1099v77q0 127 82 214t219 87t219 -86.5t82 -214.5v-77q0 -127 -81.5 -213t-217.5 -86q-138 0 -220.5 86t-82.5 213zM250 1099q0 -74 40.5 -125.5t116.5 -51.5q73 0 113 51t40 126v77q0 74 -40.5 126.5t-114.5 52.5q-75 0 -115 -52.5t-40 -126.5v-77zM349 177 l711 1138l109 -67l-711 -1138zM809 279v78q0 127 82 213.5t219 86.5q136 0 218.5 -86.5t82.5 -213.5v-78q0 -128 -82 -214t-217 -86q-138 0 -220.5 86t-82.5 214zM955 279q0 -75 40.5 -126.5t116.5 -51.5q73 0 113 51.5t40 126.5v78q0 74 -41 126t-114 52q-74 0 -114.5 -52 t-40.5 -126v-78z" />
<glyph unicode="&#x26;" horiz-adv-x="1276" d="M64 392q0 122 70.5 213.5t210.5 183.5q-78 99 -116 176.5t-38 159.5q0 169 97.5 260.5t268.5 91.5q158 0 257 -91t99 -219q0 -98 -52.5 -169.5t-155.5 -146.5l-109 -80l340 -409q41 65 64 144t23 167h176q0 -132 -39 -244t-113 -201l185 -223l-2 -5h-229l-85 102 q-80 -60 -177 -91.5t-201 -31.5q-217 0 -345.5 115t-128.5 298zM261 392q0 -113 71 -186t206 -73q72 0 142 24.5t132 70.5l-361 435l-40 -29q-91 -68 -120.5 -130t-29.5 -112zM388 1127q0 -53 27 -110.5t81 -125.5l138 95q57 38 77.5 82.5t20.5 98.5q0 61 -48.5 108 t-126.5 47q-81 0 -125 -56.5t-44 -138.5z" />
<glyph unicode="'" horiz-adv-x="445" d="M126 951l1 265v240h197v-223l-101 -282h-97z" />
<glyph unicode="(" horiz-adv-x="679" d="M132 582v9q0 394 159 673t334 372l6 -1l38 -116q-137 -107 -238.5 -343t-101.5 -583v-13q0 -347 101 -583t239 -352l-38 -108h-6q-175 93 -334 371.5t-159 673.5z" />
<glyph unicode=")" horiz-adv-x="687" d="M6 -355q135 105 237.5 345.5t102.5 589.5v13q0 342 -105.5 583.5t-234.5 351.5l38 108h6q174 -93 333.5 -372t159.5 -673v-9q0 -395 -159.5 -673.5t-333.5 -371.5h-6z" />
<glyph unicode="*" horiz-adv-x="884" d="M88 763l49 154l236 -90l-10 254h161l-10 -260l233 89l48 -156l-242 -68l153 -200l-132 -96l-140 218l-135 -210l-133 92l158 206z" />
<glyph unicode="+" horiz-adv-x="1162" d="M78 605v178h402v423h197v-423h399v-178h-399v-459h-197v459h-402z" />
<glyph unicode="," horiz-adv-x="404" d="M48 -258l70 316v163h197v-173l-150 -306h-117z" />
<glyph unicode="-" horiz-adv-x="923" d="M167 538v154h590v-154h-590z" />
<glyph unicode="." horiz-adv-x="548" d="M161 0v202h197v-202h-197z" />
<glyph unicode="/" horiz-adv-x="850" d="M16 -125l608 1581h167l-607 -1581h-168z" />
<glyph unicode="0" horiz-adv-x="1153" d="M113 514v428q0 245 125.5 390t336.5 145q212 0 338.5 -145t126.5 -390v-428q0 -247 -125.5 -391t-337.5 -144q-211 0 -337.5 144t-126.5 391zM310 474q0 -157 70.5 -249t196.5 -92q128 0 197 91.5t69 249.5v509q0 157 -70 248t-198 91q-127 0 -196 -91t-69 -248v-509z " />
<glyph unicode="1" horiz-adv-x="1153" d="M195 1271v152l515 54v-1477h-198v1274z" />
<glyph unicode="2" horiz-adv-x="1153" d="M138 1052q-5 178 119 301.5t337 123.5q195 0 307 -108t112 -279q0 -115 -63.5 -225t-193.5 -276l-367 -430l2 -5h663v-154h-904v135l457 545q122 148 165.5 235.5t43.5 176.5q0 101 -59 165.5t-163 64.5q-129 0 -196.5 -79t-67.5 -197h-190z" />
<glyph unicode="3" horiz-adv-x="1153" d="M120 378l2 6h188q0 -106 76.5 -178.5t197.5 -72.5q120 0 189 74.5t69 194.5q0 137 -63.5 205t-199.5 68h-162v153h162q132 0 186.5 65.5t54.5 183.5q0 110 -59.5 177.5t-176.5 67.5q-114 0 -188.5 -70.5t-74.5 -176.5h-188l-3 6q-5 164 124 280t330 116q203 0 318 -102.5 t115 -301.5q0 -102 -53.5 -186t-149.5 -131q110 -44 167.5 -133.5t57.5 -216.5q0 -200 -126.5 -313.5t-328.5 -113.5q-186 0 -327.5 109.5t-136.5 289.5z" />
<glyph unicode="4" horiz-adv-x="1153" d="M72 336v111l613 1009h208v-966h201v-154h-201v-336h-196v336h-625zM283 490h414v683l-6 1l-19 -50z" />
<glyph unicode="5" horiz-adv-x="1153" d="M157 377l2 6h178q0 -119 68.5 -184.5t177.5 -65.5q125 0 194 88t69 241q0 139 -69.5 225t-193.5 86q-116 0 -168 -35t-77 -108l-163 17l84 809h729v-175h-563l-47 -419q47 35 104 57.5t130 23.5q202 2 316.5 -126.5t114.5 -352.5q0 -219 -117.5 -352t-342.5 -133 q-185 0 -308 101t-118 297z" />
<glyph unicode="6" horiz-adv-x="1153" d="M137 552v335q0 256 145.5 423t358.5 167q86 0 170 -17t139 -43l-42 -151q-57 25 -120 40.5t-147 15.5q-137 0 -222.5 -117t-85.5 -296v-113q61 61 144.5 96t179.5 35q188 0 297.5 -126t109.5 -331q0 -224 -122.5 -357.5t-330.5 -133.5q-202 0 -338 153.5t-136 419.5z M333 533q0 -185 80.5 -292.5t197.5 -107.5q123 0 189.5 93.5t66.5 243.5q0 142 -71.5 226t-201.5 84q-93 0 -159.5 -39.5t-101.5 -106.5v-101z" />
<glyph unicode="7" horiz-adv-x="1153" d="M97 1301v155h966v-155q-276 -328 -373 -579t-97 -563v-159h-197v159q0 330 121.5 594.5t351.5 547.5h-772z" />
<glyph unicode="8" horiz-adv-x="1153" d="M102 400q0 123 76.5 217t206.5 138q-112 42 -177 128.5t-65 200.5q0 191 122.5 292t319.5 101q186 0 305.5 -101.5t119.5 -291.5q0 -114 -64 -200.5t-170 -129.5q124 -43 199 -137t75 -217q0 -201 -130.5 -311t-332.5 -110q-214 0 -349.5 110t-135.5 311zM299 404 q0 -123 80.5 -197t207.5 -74q114 0 190.5 74.5t76.5 196.5q0 119 -77.5 196t-191.5 77q-124 0 -205 -77t-81 -196zM340 1081q0 -111 70 -180t177 -69q97 0 161.5 69t64.5 180q0 105 -65.5 173t-162.5 68q-107 0 -176 -65.5t-69 -175.5z" />
<glyph unicode="9" horiz-adv-x="1153" d="M93 978q0 220 127 359.5t314 139.5q218 0 350 -137t132 -387v-442q0 -251 -144 -391.5t-371 -140.5q-77 0 -157.5 16t-150.5 47l30 150q66 -32 129.5 -45.5t148.5 -13.5q142 0 229.5 98t87.5 278v124q-48 -71 -119.5 -107.5t-156.5 -36.5q-210 0 -329.5 129.5 t-119.5 359.5zM290 978q0 -150 66 -242.5t186 -92.5q103 0 173.5 47t102.5 120v172q0 163 -73 251.5t-205 88.5q-107 0 -178.5 -95.5t-71.5 -248.5z" />
<glyph unicode=":" horiz-adv-x="517" d="M161 0v202h197v-202h-197zM161 876v202h197v-202h-197z" />
<glyph unicode=";" horiz-adv-x="525" d="M162 876v202h197v-202h-197zM99 -258l70 316v163h197v-173l-150 -306h-117z" />
<glyph unicode="&#x3c;" horiz-adv-x="1040" d="M71 486v149l816 378v-201l-559 -233l-85 -18v-6l85 -19l559 -228v-201z" />
<glyph unicode="=" horiz-adv-x="1153" d="M152 407v164h834v-164h-834zM152 823v164h834v-164h-834z" />
<glyph unicode="&#x3e;" horiz-adv-x="1072" d="M136 87v196l598 238l85 17v6l-85 20l-598 234v195l856 -378v-149z" />
<glyph unicode="?" horiz-adv-x="974" d="M61 1122q-3 161 113.5 258t296.5 97q197 0 306 -100.5t109 -280.5q0 -129 -70.5 -236t-186.5 -219q-54 -54 -65.5 -97t-11.5 -134h-197q1 145 25 201t126 148q99 117 141 180t42 152q0 106 -56.5 163t-161.5 57q-91 0 -155 -49.5t-64 -145.5h-188zM353 0v208h206v-208 h-206z" />
<glyph unicode="@" horiz-adv-x="1833" d="M114 478q19 423 249 688t602 265q379 0 581.5 -250t185.5 -679q-9 -214 -120 -368.5t-332 -154.5q-73 0 -126 41.5t-76 117.5q-50 -80 -122 -119.5t-168 -39.5q-125 0 -194 120.5t-51 316.5q23 259 137.5 415.5t279.5 156.5q105 0 169 -26t139 -80l-4 -4h6l-51 -585 q-9 -110 21.5 -151.5t81.5 -41.5q123 0 197 113.5t82 288.5q16 382 -144 595.5t-496 213.5q-308 0 -495.5 -231t-202.5 -602q-18 -376 150 -594.5t482 -218.5q88 0 178.5 21.5t152.5 56.5l38 -107q-67 -42 -170.5 -65.5t-202.5 -23.5q-380 0 -587.5 249.5t-189.5 681.5z M720 416q-11 -142 21.5 -216t106.5 -74q64 0 117 24.5t97 87.5q-1 12 -0.5 25.5t2.5 29.5l47 538q-26 12 -54.5 19t-59.5 7q-125 0 -191 -109.5t-86 -331.5z" />
<glyph unicode="A" horiz-adv-x="1295" d="M43 0l525 1456h169l514 -1456h-201l-128 375h-548l-130 -375h-201zM431 540h435l-212 625h-6z" />
<glyph unicode="B" horiz-adv-x="1302" d="M170 0v1456h475q228 0 357 -98.5t129 -295.5q0 -94 -58 -168.5t-154 -113.5q143 -20 226.5 -124t83.5 -245q0 -200 -130 -305.5t-352 -105.5h-577zM367 154h380q135 0 209.5 66.5t74.5 188.5q0 121 -76 195t-205 79h-13h-370v-529zM367 837h319q110 0 179 60.5t69 168.5 q0 118 -74.5 176.5t-214.5 58.5h-278v-464z" />
<glyph unicode="C" horiz-adv-x="1297" d="M118 598v259q0 269 155.5 444.5t402.5 175.5q247 1 393 -131q142 -128 142 -337v-12l-2 -6h-189q0 153 -90 242t-254 89q-165 0 -263 -133t-98 -330v-261q0 -199 98 -332t263 -133q164 0 254 88.5t90 244.5h189l2 -6v-11q0 -198 -144 -332q-148 -138 -391 -138 q-247 0 -402.5 175t-155.5 444z" />
<glyph unicode="D" horiz-adv-x="1387" d="M170 0v1456h458q285 0 458.5 -175.5t173.5 -453.5v-199q0 -279 -173.5 -453.5t-458.5 -174.5h-458zM367 154h261q202 0 318.5 133t116.5 341v201q0 206 -116.5 339t-318.5 133h-261v-1147z" />
<glyph unicode="E" horiz-adv-x="1130" d="M170 0v1456h886v-155h-689v-471h598v-155h-598v-521h700v-154h-897z" />
<glyph unicode="F" horiz-adv-x="1130" d="M170 0v1456h913v-155h-716v-502h614v-155h-614v-644h-197z" />
<glyph unicode="G" horiz-adv-x="1387" d="M121 578v300q0 265 159 432t410 167q243 0 384 -129q137 -126 137 -319v-11l-2 -6h-189q0 133 -86 221.5t-244 88.5q-167 0 -269 -125t-102 -317v-302q0 -194 108 -319.5t276 -125.5q129 0 204.5 33.5t112.5 79.5v328h-330v154h527v-532q-52 -81 -180.5 -149t-333.5 -68 q-252 0 -417 167t-165 432z" />
<glyph unicode="H" horiz-adv-x="1441" d="M170 0v1456h197v-658h707v658h197v-1456h-197v643h-707v-643h-197z" />
<glyph unicode="I" horiz-adv-x="579" d="M190 0v1456h198v-1456h-198z" />
<glyph unicode="J" horiz-adv-x="1123" d="M79 395l2 6h189q0 -136 63 -202t179 -66q109 0 178 79t69 210v1034h197v-1034q0 -203 -123.5 -323t-320.5 -120q-201 0 -320 107q-113 102 -113 293v16z" />
<glyph unicode="K" horiz-adv-x="1302" d="M170 0v1456h197v-644h108l540 644h222l2 -5l-590 -689l632 -757l-2 -5h-239l-545 658h-128v-658h-197z" />
<glyph unicode="L" horiz-adv-x="1126" d="M170 0v1456h197v-1302h710v-154h-907z" />
<glyph unicode="M" horiz-adv-x="1779" d="M170 0v1456h259l463 -1183h6l465 1183h245v-1456h-197v1091l-6 1l-441 -1092h-137l-454 1128l-6 -1v-1127h-197z" />
<glyph unicode="N" horiz-adv-x="1442" d="M170 0v1456h197l701 -1111l6 2v1109h197v-1456h-197l-701 1112l-6 -2v-1110h-197z" />
<glyph unicode="O" horiz-adv-x="1396" d="M113 598v259q0 266 159.5 443t414.5 177q264 0 429.5 -176.5t165.5 -443.5v-259q0 -267 -165.5 -443t-429.5 -176q-255 0 -414.5 176t-159.5 443zM310 598q0 -202 102.5 -330t274.5 -128q183 0 290.5 127.5t107.5 330.5v261q0 200 -108 328t-290 128q-172 0 -274.5 -128 t-102.5 -328v-261z" />
<glyph unicode="P" horiz-adv-x="1302" d="M170 0v1456h557q233 0 362.5 -120t129.5 -316q0 -198 -129.5 -317t-362.5 -119h-360v-584h-197zM367 738h360q148 0 221 79.5t73 200.5t-73.5 202t-220.5 81h-360v-563z" />
<glyph unicode="Q" horiz-adv-x="1427" d="M113 598v259q0 266 159.5 443t414.5 177q264 0 429.5 -176.5t165.5 -443.5v-259q0 -115 -33.5 -217.5t-95.5 -183.5l217 -211l-135 -129l-222 213q-70 -45 -152 -68t-174 -23q-255 0 -414.5 176t-159.5 443zM310 598q0 -202 102.5 -330t274.5 -128q183 0 290.5 127.5 t107.5 330.5v261q0 200 -108 328t-290 128q-172 0 -274.5 -128t-102.5 -328v-261z" />
<glyph unicode="R" horiz-adv-x="1303" d="M170 0v1455h498q239 0 365 -106t126 -308q0 -112 -58.5 -195t-170.5 -132q120 -39 172.5 -126.5t52.5 -216.5v-137q0 -68 15 -122t52 -88v-24h-203q-39 34 -50 100t-11 136v133q0 118 -69 190t-185 72h-337v-631h-197zM367 786h281q167 0 240.5 63.5t73.5 193.5 q0 123 -71.5 190.5t-222.5 67.5h-301v-515z" />
<glyph unicode="S" horiz-adv-x="1252" d="M114 413l2 6h188q0 -137 104 -211.5t235 -74.5q140 0 221.5 63t81.5 171q0 99 -71 166t-250 114q-222 55 -346.5 162t-124.5 269q0 171 134 285t348 114q230 -1 366 -131q133 -127 133 -294v-10l-3 -6h-188q0 124 -86.5 205t-221.5 81q-138 0 -211.5 -67t-73.5 -174 q0 -95 80.5 -158.5t261.5 -111.5q220 -57 335 -168t115 -274q0 -176 -138.5 -283t-361.5 -107q-211 0 -373 118q-157 114 -156 304v12z" />
<glyph unicode="T" horiz-adv-x="1225" d="M37 1301v155h1151v-155h-480v-1301h-197v1301h-474z" />
<glyph unicode="U" horiz-adv-x="1386" d="M147 489v967h197v-967q0 -167 95.5 -261.5t246.5 -94.5q160 0 260.5 94.5t100.5 261.5v967h197v-967q0 -240 -156 -375t-402 -135q-237 0 -388 135.5t-151 374.5z" />
<glyph unicode="V" horiz-adv-x="1295" d="M22 1456h214l376 -1074l33 -121h6l33 121l376 1074h213l-541 -1456h-169z" />
<glyph unicode="W" horiz-adv-x="1763" d="M37 1456h213l212 -951l25 -191l6 -1l34 192l258 951h193l260 -951l34 -195h6l27 195l208 951h214l-352 -1456h-176l-291 1010l-22 131h-6l-21 -131l-295 -1010h-176z" />
<glyph unicode="X" horiz-adv-x="1295" d="M66 0l472 734l-462 722h236l338 -568l340 568h238l-462 -722l472 -734h-235l-349 578l-350 -578h-238z" />
<glyph unicode="Y" horiz-adv-x="1295" d="M40 1456h225l380 -740l380 740h225l-511 -944v-512h-196v527z" />
<glyph unicode="Z" horiz-adv-x="1225" d="M97 0v146l778 1155h-767v155h992v-141l-781 -1161h814v-154h-1036z" />
<glyph unicode="[" horiz-adv-x="552" d="M143 -312v1976h385v-155h-188v-1666h188v-155h-385z" />
<glyph unicode="\" horiz-adv-x="846" d="M39 1456h186l608 -1581h-186z" />
<glyph unicode="]" horiz-adv-x="552" d="M11 -157h189v1666h-189v155h386v-1976h-386v155z" />
<glyph unicode="^" horiz-adv-x="856" d="M61 729l299 727h134l298 -727h-181l-166 419l-16 70h-6l-16 -70l-163 -419h-183z" />
<glyph unicode="_" horiz-adv-x="931" d="M4 0h923v-154h-923v154z" />
<glyph unicode="`" horiz-adv-x="641" d="M82 1512l3 6h230l175 -266h-158z" />
<glyph unicode="a" horiz-adv-x="1126" d="M106 304q0 155 125.5 242.5t340.5 87.5h214v107q0 95 -58 150.5t-164 55.5q-96 0 -155 -48t-59 -115l-187 -2l-2 6v13q1 110 111 203q118 98 303 98q184 0 296 -93.5t112 -269.5v-521q0 -58 6 -112t22 -106h-203q-10 49 -15.5 86.5t-6.5 75.5q-55 -78 -143.5 -130.5 t-190.5 -52.5q-169 0 -257.5 86.5t-88.5 238.5zM303 300q0 -72 45 -114t133 -42q107 0 193 55t112 126v176h-221q-119 0 -190.5 -60t-71.5 -141z" />
<glyph unicode="b" d="M143 0v1560h197v-606q51 72 126.5 110t176.5 38q200 0 312 -160t112 -421v-21q0 -234 -112.5 -377.5t-309.5 -143.5q-108 0 -187.5 42.5t-131.5 125.5l-32 -147h-151zM340 309q38 -80 99.5 -125t155.5 -45q139 0 207 99t68 262v21q0 186 -68.5 303.5t-208.5 117.5 q-91 0 -153.5 -44.5t-99.5 -119.5v-469z" />
<glyph unicode="c" horiz-adv-x="1072" d="M97 520v42q0 229 124.5 384.5t351.5 155.5q181 0 297 -112q112 -108 111 -264v-11l-2 -6h-179q0 99 -64.5 168.5t-162.5 69.5q-145 0 -211.5 -112.5t-66.5 -272.5v-42q0 -163 65.5 -275t212.5 -112q91 0 159 60.5t68 148.5h178l3 -6v-9q0 -135 -120 -239 q-124 -108 -288 -109q-228 0 -352 155t-124 386z" />
<glyph unicode="d" d="M98 500v21q0 261 111.5 421t312.5 160q95 0 168.5 -35t125.5 -102v595h197v-1560h-151l-30 137q-53 -78 -131 -118t-181 -40q-198 0 -310 143.5t-112 377.5zM295 500q0 -164 67 -262.5t208 -98.5q88 0 148 40t98 112v505q-38 67 -98.5 106.5t-145.5 39.5 q-142 0 -209.5 -117t-67.5 -304v-21z" />
<glyph unicode="e" horiz-adv-x="1072" d="M97 520v44q0 233 134.5 385.5t328.5 152.5q217 0 325.5 -135t108.5 -359v-104h-692l-3 -5q0 -163 72 -264.5t220 -101.5q100 0 175.5 28.5t129.5 78.5l77 -128q-58 -56 -153 -94.5t-229 -38.5q-233 0 -363.5 149t-130.5 392zM307 664l2 -5h488v16q0 118 -58 195t-179 77 q-103 0 -170.5 -79.5t-82.5 -203.5z" />
<glyph unicode="f" horiz-adv-x="674" d="M56 936v146h169v137q0 173 90.5 267.5t252.5 94.5q34 0 68.5 -5.5t76.5 -15.5l-24 -150q-18 4 -43.5 7t-53.5 3q-86 0 -128 -51.5t-42 -149.5v-137h196v-146h-196v-936h-197v936h-169z" />
<glyph unicode="g" d="M108 500v21q0 261 111.5 421t311.5 160q103 0 181 -41.5t131 -119.5l24 141h157v-1088q0 -208 -121 -319.5t-349 -111.5q-78 0 -168.5 21.5t-159.5 58.5l30 153q57 -30 137.5 -48.5t158.5 -18.5q144 0 209.5 65.5t65.5 199.5v123q-53 -68 -127 -103t-171 -35 q-198 0 -309.5 143.5t-111.5 377.5zM305 500q0 -163 67 -262t207 -99q89 0 149 40.5t99 114.5v498q-38 69 -99 109.5t-147 40.5q-141 0 -208.5 -117t-67.5 -304v-21z" />
<glyph unicode="h" d="M143 0v1560h197v-623q56 78 137.5 121.5t180.5 43.5q173 0 269.5 -104t96.5 -320v-678h-197v680q0 134 -57.5 198t-171.5 64q-88 0 -153 -34.5t-105 -96.5v-811h-197z" />
<glyph unicode="i" horiz-adv-x="516" d="M159 0v1082h197v-1082h-197zM159 1359v201h197v-201h-197z" />
<glyph unicode="j" horiz-adv-x="530" d="M-66 -419l14 155q14 -5 40 -8.5t43 -3.5q65 0 103.5 44t38.5 143v1171h197v-1171q0 -167 -86 -257.5t-239 -90.5q-31 0 -56.5 4.5t-54.5 13.5zM167 1363v197h197v-197h-197z" />
<glyph unicode="k" horiz-adv-x="1050" d="M144 0v1560h197v-904h99l325 426h236l-393 -499l427 -583h-233l-360 499h-101v-499h-197z" />
<glyph unicode="l" horiz-adv-x="516" d="M159 0v1560h197v-1560h-197z" />
<glyph unicode="m" horiz-adv-x="1790" d="M143 0v1082h176l14 -142q53 77 134.5 119.5t189.5 42.5t185.5 -50t116.5 -150q52 93 135.5 146.5t195.5 53.5q165 0 261 -113.5t96 -341.5v-647h-197v649q0 160 -55 226.5t-164 66.5q-101 0 -163.5 -70t-73.5 -177v-8v-687h-198v649q0 152 -56.5 222.5t-162.5 70.5 q-90 0 -148 -37t-89 -104v-801h-197z" />
<glyph unicode="n" d="M143 0v1082h176l14 -161q54 86 135.5 133.5t185.5 47.5q175 0 271 -102.5t96 -316.5v-683h-197v679q0 143 -56.5 203t-172.5 60q-91 0 -154.5 -36.5t-100.5 -102.5v-803h-197z" />
<glyph unicode="o" d="M97 529v22q0 240 130 395.5t353 155.5q225 0 355.5 -155t130.5 -396v-22q0 -242 -130 -396t-354 -154t-354.5 154.5t-130.5 395.5zM294 529q0 -172 72.5 -284t215.5 -112q141 0 214 112t73 284v22q0 170 -73.5 283t-215.5 113q-141 0 -213.5 -113t-72.5 -283v-22z" />
<glyph unicode="p" d="M143 -416v1498h151l31 -140q53 78 132 119t184 41q201 0 312.5 -159.5t111.5 -421.5v-21q0 -234 -112 -377.5t-309 -143.5q-100 0 -175.5 33.5t-128.5 100.5v-529h-197zM340 275q37 -67 97 -104.5t147 -37.5q140 0 212 102.5t72 264.5v21q0 184 -72.5 302.5t-213.5 118.5 q-85 0 -145 -38.5t-97 -105.5v-523z" />
<glyph unicode="q" d="M98 500v21q0 261 111.5 421t312.5 160q98 0 173 -37.5t128 -108.5l28 126h151v-1498h-197v518q-52 -61 -123 -92t-162 -31q-198 0 -310 143.5t-112 377.5zM295 500q0 -164 67.5 -265.5t207.5 -101.5q81 0 138.5 36t96.5 101v546q-39 61 -96.5 96t-136.5 35 q-141 0 -209 -119.5t-68 -306.5v-21z" />
<glyph unicode="r" horiz-adv-x="717" d="M143 0v1082h176l19 -158q46 84 113.5 131t155.5 47q22 0 42 -3.5t33 -7.5l-27 -183l-101 6q-78 0 -131.5 -37t-82.5 -104v-773h-197z" />
<glyph unicode="s" horiz-adv-x="1071" d="M109 329l2 6h188q5 -105 78 -153.5t171 -48.5q105 0 164.5 44.5t59.5 113.5q0 65 -49.5 106t-187.5 72q-191 41 -293.5 115t-102.5 198q0 132 112.5 226t291.5 94q184 0 298 -100q109 -96 109 -222v-11l-2 -6h-188q0 70 -61.5 127t-155.5 57q-104 0 -155.5 -47 t-51.5 -112q0 -64 44.5 -99t183.5 -64q199 -42 302 -119t103 -201q0 -144 -116.5 -235t-304.5 -91q-207 0 -326 105q-113 100 -113 232v13z" />
<glyph unicode="t" horiz-adv-x="690" d="M48 936v146h172v261h197v-261h205v-146h-205v-657q0 -76 31.5 -107t83.5 -31q17 0 38 4.5t35 9.5l27 -135q-22 -18 -65 -29.5t-85 -11.5q-120 0 -191 72.5t-71 227.5v657h-172z" />
<glyph unicode="u" d="M139 444v638h197v-640q0 -173 51 -238t159 -65q105 0 173.5 42.5t103.5 120.5v780h197v-1082h-177l-13 160q-51 -87 -131 -134t-185 -47q-177 0 -276 113t-99 352z" />
<glyph unicode="v" horiz-adv-x="1030" d="M46 1082h202l256 -763l17 -76h6l19 76l249 763h201l-398 -1082h-149z" />
<glyph unicode="w" horiz-adv-x="1550" d="M45 1082h205l170 -688l25 -139h6l26 139l216 688h158l217 -688l28 -155h6l32 155l160 688h206l-314 -1082h-159l-214 659l-41 172h-6l-38 -172l-210 -659h-159z" />
<glyph unicode="x" horiz-adv-x="1030" d="M46 0l361 547l-351 535h227l227 -399l230 399h230l-351 -535l361 -547h-226l-240 409l-240 -409h-228z" />
<glyph unicode="y" horiz-adv-x="1030" d="M26 1082h220l228 -681l35 -136h6l266 817h219l-455 -1248q-41 -109 -117.5 -190t-206.5 -81q-24 0 -61 5.5t-57 10.5l20 155q-6 1 35.5 -2t52.5 -3q63 0 103 56t67 124l47 113z" />
<glyph unicode="z" horiz-adv-x="1030" d="M94 0v138l585 788h-578v156h819v-134l-591 -794h625v-154h-860z" />
<glyph unicode="{" horiz-adv-x="696" d="M63 543v147q106 0 157.5 61.5t51.5 174.5v206q0 171 82 290.5t277 174.5l40 -117q-110 -35 -156 -125.5t-46 -222.5v-206q0 -105 -42.5 -185t-127.5 -125q85 -46 127.5 -126.5t42.5 -183.5v-205q0 -132 46 -221.5t156 -125.5l-40 -118q-195 55 -277 175t-82 290v205 q0 112 -51.5 174.5t-157.5 62.5z" />
<glyph unicode="|" horiz-adv-x="507" d="M145 -270v1726h197v-1726h-197z" />
<glyph unicode="}" horiz-adv-x="696" d="M21 -246q109 36 156 125.5t47 221.5v205q0 107 45 187t139 123q-94 41 -139 121t-45 189v206q0 132 -47 222.5t-156 125.5l41 117q194 -55 276.5 -174.5t82.5 -290.5v-206q0 -113 50.5 -174.5t158.5 -61.5v-147q-108 0 -158.5 -62.5t-50.5 -174.5v-205q0 -170 -82.5 -290 t-276.5 -175z" />
<glyph unicode="~" horiz-adv-x="1391" d="M128 474q0 136 85.5 232.5t217.5 96.5q88 0 163 -34.5t160 -104.5q58 -51 106 -74t100 -23q66 0 114.5 57t48.5 134l141 -18q0 -137 -87 -238t-217 -101q-90 0 -163.5 33t-158.5 107q-59 48 -108 72t-99 24q-67 0 -114.5 -53t-47.5 -128z" />
<glyph unicode="&#xa2;" horiz-adv-x="1122" d="M97 520v42q0 202 99 350t282 181v225h198v-227q140 -30 225 -134.5t82 -242.5l-3 -5h-180q0 99 -64.5 168.5t-162.5 69.5q-145 0 -211.5 -112.5t-66.5 -272.5v-42q0 -163 65.5 -275t212.5 -112q91 0 159 60.5t68 148.5h180l2 -5q3 -116 -86 -215t-220 -130v-237h-198v233 q-184 31 -282.5 179t-98.5 353z" />
<glyph unicode="&#xa3;" horiz-adv-x="1194" d="M70 615v155h158l-10 270q0 204 112 320.5t300 116.5q200 0 310 -104.5t106 -276.5l-2 -6h-190q0 118 -63 175t-161 57q-99 0 -157 -74.5t-58 -207.5l10 -270h418v-155h-413l6 -149q0 -90 -15.5 -171.5t-44.5 -140.5h735l-1 -154h-976v154h10q48 13 72 111t24 201l-6 149 h-164z" />
<glyph unicode="&#xa5;" horiz-adv-x="1243" d="M30 1456h226l359 -663l360 663h224l-418 -718h312v-123h-383v-167h383v-122h-383v-326h-197v326h-375v122h375v167h-375v123h311z" />
<glyph unicode="&#xa8;" horiz-adv-x="1021" d="M170 1256v200h219v-200h-219zM640 1256v200h219v-200h-219z" />
<glyph unicode="&#xa9;" horiz-adv-x="1604" d="M88 729q0 315 207 531t503 216q295 0 502 -216t207 -531q0 -316 -207.5 -533t-501.5 -217q-296 0 -503 217t-207 533zM209 729q0 -265 171.5 -447t417.5 -182q245 0 417 182t172 447q0 263 -172 444t-417 181q-246 0 -417.5 -181t-171.5 -444zM436 669v119q0 173 94 280 t254 107q157 0 245.5 -79t84.5 -228l-2 -6h-146q0 95 -45.5 138.5t-136.5 43.5q-94 0 -145 -70.5t-51 -184.5v-120q0 -117 51 -187t145 -70q91 0 136 43t45 141h146l2 -6q4 -151 -84 -229.5t-245 -78.5q-160 0 -254 106.5t-94 280.5z" />
<glyph unicode="&#xab;" horiz-adv-x="966" d="M97 506v19l295 389h148l-255 -399l255 -398h-148zM432 506v19l295 389h148l-255 -399l255 -398h-148z" />
<glyph unicode="&#xad;" horiz-adv-x="923" d="M167 538v154h590v-154h-590z" />
<glyph unicode="&#xae;" horiz-adv-x="1604" d="M88 729q0 315 207 531t503 216q295 0 502 -216t207 -531q0 -316 -207.5 -533t-501.5 -217q-296 0 -503 217t-207 533zM209 729q0 -266 171.5 -447.5t417.5 -181.5q244 0 416 182t172 447q0 264 -171.5 444.5t-416.5 180.5q-246 0 -417.5 -180.5t-171.5 -444.5zM504 316 v850h280q152 0 238.5 -65.5t86.5 -191.5q0 -62 -33 -109t-96 -78q66 -26 95.5 -79t29.5 -128v-56q0 -41 3.5 -73.5t13.5 -53.5v-16h-153q-9 21 -11 61.5t-2 82.5v54q0 72 -33.5 106t-110.5 34h-159v-338h-149zM653 784h152q65 1 110.5 32.5t45.5 87.5q0 73 -39.5 102.5 t-137.5 29.5h-131v-252z" />
<glyph unicode="&#xb4;" horiz-adv-x="654" d="M131 1252l185 266h230l2 -6l-269 -260h-148z" />
<glyph unicode="&#xb8;" horiz-adv-x="509" d="M119 -326q72 0 116 24.5t44 73.5q0 48 -36 67t-123 26l32 135h140l-12 -52q65 -11 108 -52t43 -121q0 -96 -79 -153t-226 -57z" />
<glyph unicode="&#xbb;" horiz-adv-x="966" d="M116 170l231 380l-231 380h148l278 -357h5l1 -9l5 -5l-2 -9l2 -9l-5 -6l-1 -7h-4l-279 -358h-148zM462 170l231 380l-231 380h148l278 -357h5l1 -9l5 -5l-2 -9l2 -9l-5 -6l-1 -7h-4l-279 -358h-148z" />
<glyph unicode="&#xc0;" horiz-adv-x="1295" d="M43 0l525 1456h169l514 -1456h-201l-128 375h-548l-130 -375h-201zM431 540h435l-212 625h-6zM323 1861l3 6h230l175 -266h-158z" />
<glyph unicode="&#xc1;" horiz-adv-x="1295" d="M43 0l525 1456h169l514 -1456h-201l-128 375h-548l-130 -375h-201zM431 540h435l-212 625h-6zM558 1597l185 266h230l2 -6l-269 -260h-148z" />
<glyph unicode="&#xc2;" horiz-adv-x="1295" d="M43 0l525 1456h169l514 -1456h-201l-128 375h-548l-130 -375h-201zM431 540h435l-212 625h-6zM342 1601v26l246 237h120l248 -238v-25h-161l-147 148l-146 -148h-160z" />
<glyph unicode="&#xc4;" horiz-adv-x="1295" d="M43 0l525 1456h169l514 -1456h-201l-128 375h-548l-130 -375h-201zM431 540h435l-212 625h-6zM304 1605v200h219v-200h-219zM774 1605v200h219v-200h-219z" />
<glyph unicode="&#xc8;" horiz-adv-x="1130" d="M170 0v1456h886v-155h-689v-471h598v-155h-598v-521h700v-154h-897zM294 1861l3 6h230l175 -266h-158z" />
<glyph unicode="&#xc9;" horiz-adv-x="1130" d="M170 0v1456h886v-155h-689v-471h598v-155h-598v-521h700v-154h-897zM529 1597l185 266h230l2 -6l-269 -260h-148z" />
<glyph unicode="&#xca;" horiz-adv-x="1130" d="M170 0v1456h886v-155h-689v-471h598v-155h-598v-521h700v-154h-897zM313 1601v26l246 237h120l248 -238v-25h-161l-147 148l-146 -148h-160z" />
<glyph unicode="&#xcb;" horiz-adv-x="1130" d="M170 0v1456h886v-155h-689v-471h598v-155h-598v-521h700v-154h-897zM275 1605v200h219v-200h-219zM745 1605v200h219v-200h-219z" />
<glyph unicode="&#xcc;" horiz-adv-x="579" d="M190 0v1456h198v-1456h-198zM-35 1861l3 6h230l175 -266h-158z" />
<glyph unicode="&#xcd;" horiz-adv-x="579" d="M190 0v1456h198v-1456h-198zM199 1597l185 266h230l2 -6l-269 -260h-148z" />
<glyph unicode="&#xce;" horiz-adv-x="579" d="M190 0v1456h198v-1456h-198zM-16 1601v26l246 237h120l248 -238v-25h-161l-147 148l-146 -148h-160z" />
<glyph unicode="&#xcf;" horiz-adv-x="579" d="M190 0v1456h198v-1456h-198zM-54 1605v200h219v-200h-219zM416 1605v200h219v-200h-219z" />
<glyph unicode="&#xd2;" horiz-adv-x="1396" d="M113 598v259q0 266 159.5 443t414.5 177q264 0 429.5 -176.5t165.5 -443.5v-259q0 -267 -165.5 -443t-429.5 -176q-255 0 -414.5 176t-159.5 443zM310 598q0 -202 102.5 -330t274.5 -128q183 0 290.5 127.5t107.5 330.5v261q0 200 -108 328t-290 128q-172 0 -274.5 -128 t-102.5 -328v-261zM373 1882l3 6h230l175 -266h-158z" />
<glyph unicode="&#xd3;" horiz-adv-x="1396" d="M113 598v259q0 266 159.5 443t414.5 177q264 0 429.5 -176.5t165.5 -443.5v-259q0 -267 -165.5 -443t-429.5 -176q-255 0 -414.5 176t-159.5 443zM310 598q0 -202 102.5 -330t274.5 -128q183 0 290.5 127.5t107.5 330.5v261q0 200 -108 328t-290 128q-172 0 -274.5 -128 t-102.5 -328v-261zM608 1618l185 266h230l2 -6l-269 -260h-148z" />
<glyph unicode="&#xd4;" horiz-adv-x="1396" d="M113 598v259q0 266 159.5 443t414.5 177q264 0 429.5 -176.5t165.5 -443.5v-259q0 -267 -165.5 -443t-429.5 -176q-255 0 -414.5 176t-159.5 443zM310 598q0 -202 102.5 -330t274.5 -128q183 0 290.5 127.5t107.5 330.5v261q0 200 -108 328t-290 128q-172 0 -274.5 -128 t-102.5 -328v-261zM392 1622v26l246 237h120l248 -238v-25h-161l-147 148l-146 -148h-160z" />
<glyph unicode="&#xd6;" horiz-adv-x="1396" d="M113 598v259q0 266 159.5 443t414.5 177q264 0 429.5 -176.5t165.5 -443.5v-259q0 -267 -165.5 -443t-429.5 -176q-255 0 -414.5 176t-159.5 443zM310 598q0 -202 102.5 -330t274.5 -128q183 0 290.5 127.5t107.5 330.5v261q0 200 -108 328t-290 128q-172 0 -274.5 -128 t-102.5 -328v-261zM354 1626v200h219v-200h-219zM824 1626v200h219v-200h-219z" />
<glyph unicode="&#xd9;" horiz-adv-x="1386" d="M147 489v967h197v-967q0 -167 95.5 -261.5t246.5 -94.5q160 0 260.5 94.5t100.5 261.5v967h197v-967q0 -240 -156 -375t-402 -135q-237 0 -388 135.5t-151 374.5zM372 1861l3 6h230l175 -266h-158z" />
<glyph unicode="&#xda;" horiz-adv-x="1386" d="M147 489v967h197v-967q0 -167 95.5 -261.5t246.5 -94.5q160 0 260.5 94.5t100.5 261.5v967h197v-967q0 -240 -156 -375t-402 -135q-237 0 -388 135.5t-151 374.5zM607 1597l185 266h230l2 -6l-269 -260h-148z" />
<glyph unicode="&#xdb;" horiz-adv-x="1386" d="M147 489v967h197v-967q0 -167 95.5 -261.5t246.5 -94.5q160 0 260.5 94.5t100.5 261.5v967h197v-967q0 -240 -156 -375t-402 -135q-237 0 -388 135.5t-151 374.5zM391 1601v26l246 237h120l248 -238v-25h-161l-147 148l-146 -148h-160z" />
<glyph unicode="&#xdc;" horiz-adv-x="1386" d="M147 489v967h197v-967q0 -167 95.5 -261.5t246.5 -94.5q160 0 260.5 94.5t100.5 261.5v967h197v-967q0 -240 -156 -375t-402 -135q-237 0 -388 135.5t-151 374.5zM353 1605v200h219v-200h-219zM823 1605v200h219v-200h-219z" />
<glyph unicode="&#xdd;" horiz-adv-x="1295" d="M40 1456h225l380 -740l380 740h225l-511 -944v-512h-196v527zM556 1596l185 266h230l2 -6l-269 -260h-148z" />
<glyph unicode="&#xe0;" horiz-adv-x="1126" d="M106 304q0 155 125.5 242.5t340.5 87.5h214v107q0 95 -58 150.5t-164 55.5q-96 0 -155 -48t-59 -115l-187 -2l-2 6v13q1 110 111 203q118 98 303 98q184 0 296 -93.5t112 -269.5v-521q0 -58 6 -112t22 -106h-203q-10 49 -15.5 86.5t-6.5 75.5q-55 -78 -143.5 -130.5 t-190.5 -52.5q-169 0 -257.5 86.5t-88.5 238.5zM303 300q0 -72 45 -114t133 -42q107 0 193 55t112 126v176h-221q-119 0 -190.5 -60t-71.5 -141zM230 1539l3 6h230l175 -266h-158z" />
<glyph unicode="&#xe2;" horiz-adv-x="1126" d="M106 304q0 155 125.5 242.5t340.5 87.5h214v107q0 95 -58 150.5t-164 55.5q-96 0 -155 -48t-59 -115l-187 -2l-2 6v13q1 110 111 203q118 98 303 98q184 0 296 -93.5t112 -269.5v-521q0 -58 6 -112t22 -106h-203q-10 49 -15.5 86.5t-6.5 75.5q-55 -78 -143.5 -130.5 t-190.5 -52.5q-169 0 -257.5 86.5t-88.5 238.5zM303 300q0 -72 45 -114t133 -42q107 0 193 55t112 126v176h-221q-119 0 -190.5 -60t-71.5 -141zM249 1279v26l246 237h120l248 -238v-25h-161l-147 148l-146 -148h-160z" />
<glyph unicode="&#xe4;" horiz-adv-x="1126" d="M106 304q0 155 125.5 242.5t340.5 87.5h214v107q0 95 -58 150.5t-164 55.5q-96 0 -155 -48t-59 -115l-187 -2l-2 6v13q1 110 111 203q118 98 303 98q184 0 296 -93.5t112 -269.5v-521q0 -58 6 -112t22 -106h-203q-10 49 -15.5 86.5t-6.5 75.5q-55 -78 -143.5 -130.5 t-190.5 -52.5q-169 0 -257.5 86.5t-88.5 238.5zM303 300q0 -72 45 -114t133 -42q107 0 193 55t112 126v176h-221q-119 0 -190.5 -60t-71.5 -141zM211 1283v200h219v-200h-219zM681 1283v200h219v-200h-219z" />
<glyph unicode="&#xe8;" horiz-adv-x="1072" d="M97 520v44q0 233 134.5 385.5t328.5 152.5q217 0 325.5 -135t108.5 -359v-104h-692l-3 -5q0 -163 72 -264.5t220 -101.5q100 0 175.5 28.5t129.5 78.5l77 -128q-58 -56 -153 -94.5t-229 -38.5q-233 0 -363.5 149t-130.5 392zM307 664l2 -5h488v16q0 118 -58 195t-179 77 q-103 0 -170.5 -79.5t-82.5 -203.5zM214 1540l3 6h230l175 -266h-158z" />
<glyph unicode="&#xe9;" horiz-adv-x="1072" d="M97 520v44q0 233 134.5 385.5t328.5 152.5q217 0 325.5 -135t108.5 -359v-104h-692l-3 -5q0 -163 72 -264.5t220 -101.5q100 0 175.5 28.5t129.5 78.5l77 -128q-58 -56 -153 -94.5t-229 -38.5q-233 0 -363.5 149t-130.5 392zM307 664l2 -5h488v16q0 118 -58 195t-179 77 q-103 0 -170.5 -79.5t-82.5 -203.5zM449 1276l185 266h230l2 -6l-269 -260h-148z" />
<glyph unicode="&#xea;" horiz-adv-x="1072" d="M97 520v44q0 233 134.5 385.5t328.5 152.5q217 0 325.5 -135t108.5 -359v-104h-692l-3 -5q0 -163 72 -264.5t220 -101.5q100 0 175.5 28.5t129.5 78.5l77 -128q-58 -56 -153 -94.5t-229 -38.5q-233 0 -363.5 149t-130.5 392zM307 664l2 -5h488v16q0 118 -58 195t-179 77 q-103 0 -170.5 -79.5t-82.5 -203.5zM233 1280v26l246 237h120l248 -238v-25h-161l-147 148l-146 -148h-160z" />
<glyph unicode="&#xeb;" horiz-adv-x="1072" d="M97 520v44q0 233 134.5 385.5t328.5 152.5q217 0 325.5 -135t108.5 -359v-104h-692l-3 -5q0 -163 72 -264.5t220 -101.5q100 0 175.5 28.5t129.5 78.5l77 -128q-58 -56 -153 -94.5t-229 -38.5q-233 0 -363.5 149t-130.5 392zM307 664l2 -5h488v16q0 118 -58 195t-179 77 q-103 0 -170.5 -79.5t-82.5 -203.5zM195 1284v200h219v-200h-219zM665 1284v200h219v-200h-219z" />
<glyph unicode="&#xec;" horiz-adv-x="515" d="M153 0v1082h197v-1082h-197zM-72 1518l3 6h230l175 -266h-158z" />
<glyph unicode="&#xed;" horiz-adv-x="515" d="M153 0v1082h197v-1082h-197zM162 1254l185 266h230l2 -6l-269 -260h-148z" />
<glyph unicode="&#xee;" horiz-adv-x="515" d="M153 0v1082h197v-1082h-197zM-53 1258v26l246 237h120l248 -238v-25h-161l-147 148l-146 -148h-160z" />
<glyph unicode="&#xef;" horiz-adv-x="515" d="M153 0v1082h197v-1082h-197zM-91 1262v200h219v-200h-219zM379 1262v200h219v-200h-219z" />
<glyph unicode="&#xf2;" d="M97 529v22q0 240 130 395.5t353 155.5q225 0 355.5 -155t130.5 -396v-22q0 -242 -130 -396t-354 -154t-354.5 154.5t-130.5 395.5zM294 529q0 -172 72.5 -284t215.5 -112q141 0 214 112t73 284v22q0 170 -73.5 283t-215.5 113q-141 0 -213.5 -113t-72.5 -283v-22z M257 1539l3 6h230l175 -266h-158z" />
<glyph unicode="&#xf3;" d="M97 529v22q0 240 130 395.5t353 155.5q225 0 355.5 -155t130.5 -396v-22q0 -242 -130 -396t-354 -154t-354.5 154.5t-130.5 395.5zM294 529q0 -172 72.5 -284t215.5 -112q141 0 214 112t73 284v22q0 170 -73.5 283t-215.5 113q-141 0 -213.5 -113t-72.5 -283v-22z M492 1275l185 266h230l2 -6l-269 -260h-148z" />
<glyph unicode="&#xf4;" d="M97 529v22q0 240 130 395.5t353 155.5q225 0 355.5 -155t130.5 -396v-22q0 -242 -130 -396t-354 -154t-354.5 154.5t-130.5 395.5zM294 529q0 -172 72.5 -284t215.5 -112q141 0 214 112t73 284v22q0 170 -73.5 283t-215.5 113q-141 0 -213.5 -113t-72.5 -283v-22z M276 1279v26l246 237h120l248 -238v-25h-161l-147 148l-146 -148h-160z" />
<glyph unicode="&#xf6;" d="M97 529v22q0 240 130 395.5t353 155.5q225 0 355.5 -155t130.5 -396v-22q0 -242 -130 -396t-354 -154t-354.5 154.5t-130.5 395.5zM294 529q0 -172 72.5 -284t215.5 -112q141 0 214 112t73 284v22q0 170 -73.5 283t-215.5 113q-141 0 -213.5 -113t-72.5 -283v-22z M238 1283v200h219v-200h-219zM708 1283v200h219v-200h-219z" />
<glyph unicode="&#xf9;" d="M139 444v638h197v-640q0 -173 51 -238t159 -65q105 0 173.5 42.5t103.5 120.5v780h197v-1082h-177l-13 160q-51 -87 -131 -134t-185 -47q-177 0 -276 113t-99 352zM255 1518l3 6h230l175 -266h-158z" />
<glyph unicode="&#xfa;" d="M139 444v638h197v-640q0 -173 51 -238t159 -65q105 0 173.5 42.5t103.5 120.5v780h197v-1082h-177l-13 160q-51 -87 -131 -134t-185 -47q-177 0 -276 113t-99 352zM490 1254l185 266h230l2 -6l-269 -260h-148z" />
<glyph unicode="&#xfb;" d="M139 444v638h197v-640q0 -173 51 -238t159 -65q105 0 173.5 42.5t103.5 120.5v780h197v-1082h-177l-13 160q-51 -87 -131 -134t-185 -47q-177 0 -276 113t-99 352zM274 1258v26l246 237h120l248 -238v-25h-161l-147 148l-146 -148h-160z" />
<glyph unicode="&#xfc;" d="M139 444v638h197v-640q0 -173 51 -238t159 -65q105 0 173.5 42.5t103.5 120.5v780h197v-1082h-177l-13 160q-51 -87 -131 -134t-185 -47q-177 0 -276 113t-99 352zM236 1262v200h219v-200h-219zM706 1262v200h219v-200h-219z" />
<glyph unicode="&#xfd;" horiz-adv-x="1030" d="M26 1082h220l228 -681l35 -136h6l266 817h219l-455 -1248q-41 -109 -117.5 -190t-206.5 -81q-24 0 -61 5.5t-57 10.5l20 155q-6 1 35.5 -2t52.5 -3q63 0 103 56t67 124l47 113zM424 1254l185 266h230l2 -6l-269 -260h-148z" />
<glyph unicode="&#xff;" horiz-adv-x="1030" d="M26 1082h220l228 -681l35 -136h6l266 817h219l-455 -1248q-41 -109 -117.5 -190t-206.5 -81q-24 0 -61 5.5t-57 10.5l20 155q-6 1 35.5 -2t52.5 -3q63 0 103 56t67 124l47 113zM170 1262v200h219v-200h-219zM640 1262v200h219v-200h-219z" />
<glyph unicode="&#x131;" horiz-adv-x="515" d="M153 0v1082h197v-1082h-197z" />
<glyph unicode="&#x178;" horiz-adv-x="1295" d="M40 1456h225l380 -740l380 740h225l-511 -944v-512h-196v527zM302 1604v200h219v-200h-219zM772 1604v200h219v-200h-219z" />
<glyph unicode="&#x2c6;" horiz-adv-x="979" d="M171 1252v26l246 237h120l248 -238v-25h-161l-147 148l-146 -148h-160z" />
<glyph unicode="&#x2da;" horiz-adv-x="696" d="M165 1308q0 72 51.5 120.5t124.5 48.5q72 0 122.5 -48.5t50.5 -120.5q0 -73 -50.5 -118.5t-122.5 -45.5q-74 0 -125 46t-51 118zM265 1308q0 -31 22.5 -52.5t53.5 -21.5q30 0 51.5 21t21.5 53t-21.5 54.5t-51.5 22.5q-32 0 -54 -22.5t-22 -54.5z" />
<glyph unicode="&#x2dc;" horiz-adv-x="979" d="M135 1275q0 93 59 161.5t150 68.5q56 0 140 -47t136 -47q41 0 71 32.5t30 79.5l108 -32q0 -94 -59.5 -159t-149.5 -65q-71 0 -148 46.5t-128 46.5q-43 0 -72 -32.5t-29 -78.5z" />
<glyph unicode="&#x2000;" horiz-adv-x="944" />
<glyph unicode="&#x2001;" horiz-adv-x="1888" />
<glyph unicode="&#x2002;" horiz-adv-x="944" />
<glyph unicode="&#x2003;" horiz-adv-x="1888" />
<glyph unicode="&#x2004;" horiz-adv-x="629" />
<glyph unicode="&#x2005;" horiz-adv-x="472" />
<glyph unicode="&#x2006;" horiz-adv-x="314" />
<glyph unicode="&#x2007;" horiz-adv-x="314" />
<glyph unicode="&#x2008;" horiz-adv-x="236" />
<glyph unicode="&#x2009;" horiz-adv-x="377" />
<glyph unicode="&#x200a;" horiz-adv-x="104" />
<glyph unicode="&#x2010;" horiz-adv-x="923" d="M167 538v154h590v-154h-590z" />
<glyph unicode="&#x2011;" horiz-adv-x="923" d="M167 538v154h590v-154h-590z" />
<glyph unicode="&#x2012;" horiz-adv-x="923" d="M167 538v154h590v-154h-590z" />
<glyph unicode="&#x2013;" horiz-adv-x="1416" d="M179.398 648v155h1085.49v-155h-1085.49z" />
<glyph unicode="&#x2014;" horiz-adv-x="1660" d="M187.796 648v155h1335.98v-155h-1335.98z" />
<glyph unicode="&#x2018;" horiz-adv-x="524" d="M145 917v184l101 355h97l-1 -361v-178h-197z" />
<glyph unicode="&#x2019;" horiz-adv-x="516" d="M160 917l1 343v196h197v-193l-101 -346h-97z" />
<glyph unicode="&#x201a;" horiz-adv-x="540" d="M168 -255l1 263v241h197v-223l-101 -281h-97z" />
<glyph unicode="&#x201c;" horiz-adv-x="788" d="M123 917v184l101 355h97l-1 -361v-178h-197zM451 917v184l101 355h97l-1 -361v-178h-197z" />
<glyph unicode="&#x201d;" horiz-adv-x="769" d="M125 917l1 343v196h197v-193l-101 -346h-97zM461 917l1 343v196h197v-193l-101 -346h-97z" />
<glyph unicode="&#x201e;" horiz-adv-x="767" d="M138 -239l1 325v194h197v-184l-101 -335h-97zM446 -239l1 333v186h197v-184l-101 -335h-97z" />
<glyph unicode="&#x2026;" horiz-adv-x="1380" d="M161 0v202h197v-202h-197zM604 0v202h197v-202h-197zM1024 0v202h197v-202h-197z" />
<glyph unicode="&#x202f;" horiz-adv-x="377" />
<glyph unicode="&#x2039;" horiz-adv-x="615" d="M108 541v19l295 389h148l-255 -399l255 -398h-148z" />
<glyph unicode="&#x203a;" horiz-adv-x="615" d="M94 170l231 380l-231 380h148l278 -357h5l1 -9l5 -5l-2 -9l2 -9l-5 -6l-1 -7h-4l-279 -358h-148z" />
<glyph unicode="&#x205f;" horiz-adv-x="472" />
<glyph unicode="&#x20ac;" horiz-adv-x="1088" d="M79 512v124h146v166h-146v125h146v15q0 244 141.5 389.5t372.5 145.5q59 0 117.5 -8t124.5 -23l-19 -159q-54 16 -110.5 25.5t-112.5 9.5q-146 0 -231.5 -103t-85.5 -275v-17h492v-125h-492v-166h492v-124h-485l-2 -5q-4 -169 81.5 -271.5t232.5 -102.5q57 0 113 8.5 t108 25.5l19 -157q-56 -15 -117.5 -23t-122.5 -8q-231 0 -373.5 144.5t-142.5 388.5h-146z" />
<glyph unicode="&#x2122;" horiz-adv-x="1284" d="M103 1374v82h384v-82h-145v-455h-94v455h-145zM565 919v537h116l161 -390h6l162 390h110v-537h-93v343l-6 2l-150 -345h-51l-156 359l-6 -2v-357h-93z" />
<glyph unicode="&#x2212;" horiz-adv-x="1170" d="M168 648v155h835v-155h-835z" />
<glyph unicode="&#xe000;" horiz-adv-x="1080" d="M0 1080h1080v-1080h-1080v1080z" />
</font>
</defs></svg> 